{
  "title": "B-Relevanz / Ledenwirbelsäule (Bandscheibenvorfälle, Spinalkanalstenose etc. - mit und ohne Ausstrahlung in das Gesäß oder Beine)",
  "class": "derSchultergelenke",
  "items": [
    {
      "type": "form",
      "title": "B-Relevanz <i class='fa fa-arrow-right'></i> der Schultergelenke (auch Oberarmbeschwerden)",
      "name": "derSchultergelenkeForm",
      "dbtable": "B_RELEVANZ_derSchultergelenke",
      "collapsed": "false",
      "showid": "false",
      "class": "derSchultergelenke",
      "style": {
        "className": "col-md-12 col-xs-12"
      },
      "items": [
        {
          "type": "hidden",
          "name": "id"
        },
        {
          "type": "hidden",
          "name": "patientId"
        },
        {
          "type": "html",
          "html": "<h4>Fragen zur den Schmerzen im unteren Rücken bzw. Lendenwirbelsäule</h4>"
        },
        {
          "type": "text",
          "name": "bRelevanz.derSchultergelenke.diangoseFestgestellt",
          "label": "Bei mir wurde folgende Diangose festgestellt",
          "style": {
            "className": "col-md-6 col-xs-12"
          }
        },
        {
          "type": "text",
          "name": "bRelevanz.derSchultergelenke.seitWannHabenSieDieSchmerzen",
          "label": "Seit wann haben Sie die Schmerzen",
          "style": {
            "className": "col-md-6 col-xs-12"
          }
        },
        {
          "type": "text",
          "name": "bRelevanz.derSchultergelenke.beschreibenSieBitteIhrBeschwerdebild",
          "label": "Beschreiben sie bitte Ihr Beschwerdebild",
          "style": {
            "className": "col-md-6 col-xs-12"
          }
        },
        {
          "type": "text",
          "name": "bRelevanz.derSchultergelenke.DiagnosenDesArztesHochladen",
          "label": "Hier können sie Diagnosen des Arztes hochladen (File Upload*)",
          "style": {
            "className": "col-md-6 col-xs-12"
          }
        },
        {
          "type": "html",
          "html": "<div id='shmerzenFileUpload1' class='col-xs-4'></div>"
        },
        {
          "type": "formgroup",
          "label": "<h4>Spezifische Fragen zur den Schmerzen</h4>",
          "visible": "true",
          "style": {
            "className": "col-md-12 col-xs-12"
          },
          "items": [
            {
              "type": "html",
              "html": "bitte geben sie zu jeder zutrffenden Frage die Schmerzstärke (0-10) in das vorgesehene Feld ein (0= kein Schmerz – 10 ist Maximalschmerz) <br><br>"
            }
          ]
        },
        {
          "type": "formgroup",
          "label": "",
          "visible": "true",
          "style": {
            "className": "col-md-6 col-xs-12"
          },
          "items": [
            {
              "type": "select",
              "name": "bRelevanz.derSchultergelenke.spezifischeFragen.wennIchDenArmSeitlichArmSeitlichAnhebe",
              "label": "Meine Schulterscmerzen treten auf , wenn ich den Arm seitlich anhebe",
              "dbtable": "SCHMERZ",
              "storetype": "Number",
              "style": {
                "className": "col-md-12 col-xs-12"
              },
              "datamap": {
                "id": "id",
                "text": "value"
              }
            },
            {
              "type": "select",
              "name": "bRelevanz.derSchultergelenke.spezifischeFragen.wennIchDenArmNachVornAnhebe",
              "label": "Meine Schulterschmerzen treten auf, wenn ich den Arm nach vorn anhebe",
              "dbtable": "SCHMERZ",
              "storetype": "Number",
              "style": {
                "className": "col-md-12 col-xs-12"
              },
              "datamap": {
                "id": "id",
                "text": "value"
              }
            },
            {
              "type": "select",
              "name": "bRelevanz.derSchultergelenke.spezifischeFragen.wennIchInDieJackeSchlupfeOderMirDenBHVerschiesse",
              "label": "Meine Schulter-Armschmerzen treten auf, wenn ich in die Jacke schlüpfe oder mir den BH verschieße",
              "dbtable": "SCHMERZ",
              "storetype": "Number",
              "style": {
                "className": "col-md-12 col-xs-12"
              },
              "datamap": {
                "id": "id",
                "text": "value"
              }
            },
            {
              "type": "select",
              "name": "bRelevanz.derSchultergelenke.spezifischeFragen.meineSchulterArmschmerzenTretenAufWennIchAufDerSeite",
              "label": "Meine Schulter-Armschmerzen treten auf, wenn ich auf der Seite liege und meine Hand unter dem Kopf habe",
              "dbtable": "SCHMERZ",
              "storetype": "Number",
              "style": {
                "className": "col-md-12 col-xs-12"
              },
              "datamap": {
                "id": "id",
                "text": "value"
              }
            },
            {
              "type": "select",
              "name": "bRelevanz.derSchultergelenke.spezifischeFragen.meinSchulterschmerzenVerstaerkenSichDurchLangesSitze",
              "label": "Mein Schulterschmerzen verstärken sich durch langes Sitzen",
              "dbtable": "SCHMERZ",
              "storetype": "Number",
              "style": {
                "className": "col-md-12 col-xs-12"
              },
              "datamap": {
                "id": "id",
                "text": "value"
              }
            },
            {
              "type": "select",
              "name": "bRelevanz.derSchultergelenke.spezifischeFragen.meineSchulterArmschmerzenVerstaerkenSichNachArbeiten",
              "label": "Meine Schulter-Armschmerzen verstärken sich nach Arbeiten wie Fenster putzen",
              "dbtable": "SCHMERZ",
              "storetype": "Number",
              "style": {
                "className": "col-md-12 col-xs-12"
              },
              "datamap": {
                "id": "id",
                "text": "value"
              }
            }
          ]
        },
        {
          "type": "formgroup",
          "label": "",
          "visible": "true",
          "style": {
            "className": "col-md-6 col-xs-12"
          },
          "items": [
            {
              "type": "select",
              "name": "bRelevanz.derSchultergelenke.spezifischeFragen.meineSchulterArmschmerzenTretenVerstaerktWaehrendDes",
              "label": "Meine Schulter-Armschmerzen treten verstärkt während des Stehens auf",
              "dbtable": "SCHMERZ",
              "storetype": "Number",
              "style": {
                "className": "col-md-12 col-xs-12"
              },
              "datamap": {
                "id": "id",
                "text": "value"
              }
            },
            {
              "type": "select",
              "name": "bRelevanz.derSchultergelenke.spezifischeFragen.meineSchulterArmschmerzenGehenMitEinemGribbeln",
              "label": "Meine Schulter-Armschmerzen gehen mit einem gribbeln in den Händen einher",
              "dbtable": "SCHMERZ",
              "storetype": "Number",
              "style": {
                "className": "col-md-12 col-xs-12"
              },
              "datamap": {
                "id": "id",
                "text": "value"
              }
            },
            {
              "type": "select",
              "name": "bRelevanz.derSchultergelenke.spezifischeFragen.meineSchulterArmschmerzenGehenMitSchmerzenImHandgelenk",
              "label": "Meine Schulter-Armschmerzen gehen mit Schmerzen im Handgelenk oder dem Ellenbogengelenk einher",
              "dbtable": "SCHMERZ",
              "storetype": "Number",
              "style": {
                "className": "col-md-12 col-xs-12"
              },
              "datamap": {
                "id": "id",
                "text": "value"
              }
            },
            {
              "type": "select",
              "name": "bRelevanz.derSchultergelenke.spezifischeFragen.meineSchulterschmerzenTretenVerstaerktAufWennIchArbeiten",
              "label": "Meine Schulterschmerzen treten verstärkt auf, wenn ich Arbeiten über Kopf ausführe",
              "dbtable": "SCHMERZ",
              "storetype": "Number",
              "style": {
                "className": "col-md-12 col-xs-12"
              },
              "datamap": {
                "id": "id",
                "text": "value"
              }
            },
            {
              "type": "select",
              "name": "bRelevanz.derSchultergelenke.spezifischeFragen.meineSchulterArmschmerzenWurdenDurchEinenUnfallAusgelo",
              "label": "Meine Schulter-Armschmerzen wurden durch einen Unfall ausgelö",
              "dbtable": "SCHMERZ",
              "storetype": "Number",
              "style": {
                "className": "col-md-12 col-xs-12"
              },
              "datamap": {
                "id": "id",
                "text": "value"
              }
            },
            {
              "type": "select",
              "name": "bRelevanz.derSchultergelenke.spezifischeFragen.meineSchulterArmschmerzenVerstaerkenSichInRuckenlage",
              "label": "Meine Schulter-Armschmerzen verstärken sich in Rückenlage",
              "dbtable": "SCHMERZ",
              "storetype": "Number",
              "style": {
                "className": "col-md-12 col-xs-12"
              },
              "datamap": {
                "id": "id",
                "text": "value"
              }
            }
          ]
        },
        {
          "type": "button",
          "action": "submit",
          "name": "submitBtn",
          "onclick": "saveOrUpdate",
          "label": "{{lang-bind:save}}"
        },
        {
          "type": "button",
          "action": "dismiss",
          "name": "resetBtn",
          "onclick": "cancel()",
          "label": "{{lang-bind:dismiss}}"
        },
        {
          "type": "button",
          "action": "reset",
          "name": "resetBtn",
          "onclick": "cancel",
          "label": "{{lang-bind:clear}}"
        }
      ]
    }
  ]
}
