{
    "title": "{{lang-bind:definitions}}",
    "class": "permission",
    "style": {"className" : "row"},
    "items": [
        {
            "type": "form",
            "name": "permissionForm",
            "title": "Yetkiler",
            "dbtable": "permission",
            "style": {"className" : "col-xs-12"},
            "items": [
                {
                    "type": "hidden",
                    "name": "id",
                    "label": "ID",
                    "style": {"className" : "col-xs-6"},
                    "attribute": "placeholder='İsim giriniz...'"
                },
                {
                    "type":"select",
                    "name":"user",
                    "dbtable": "users",
                    "label":"Kullanıcı",
                    "defaulttext": "Seçim...",
                    "style": {"className" : "col-xs-3"},
                    "datamap": {"id": "id", "text": "username"}
                },
                {
                    "type": "text",
                    "name": "name",
                    "label": "Yetki tanımı",
                    "style": {"className" : "col-xs-9"},
                    "attribute": "placeholder='Yetki tanımlayınız...'",
                    "tooltip": "{{lang-bind:name:false}}",
                    "required": true
                },
                {
                    "type":"text",
                    "name":"classname",
                    "label":"Class Adı",
                    "style": {"className" : "col-xs-3"}
                },
                {
                    "type":"text",
                    "name":"formname",
                    "label":"Form Adı",
                    "style": {"className" : "col-xs-3"}
                },
                {
                    "type":"text",
                    "name":"itemname",
                    "label":"Eleman Adı",
                    "style": {"className" : "col-xs-6"}
                },
                {
                    "type": "button",
                    "action": "reset",
                    "name": "btnReset",
                    "label": "R",
                    "tooltip": "Reset form",
                    "style": {"className" : "col-xs-6"}
                },
                {
                    "type": "button",
                    "action": "submit",
                    "name": "btnAnalise",
                    "label": "A",
                    "tooltip": "Analize form",
                    "style": {"className" : "col-xs-6"}
                }
            ]
        },
        {
            "type": "table",
            "title": "Yetki tablosu",
            "name": "permissionTable",
            "bind": "permissionForm",
            "dbtable": "permission",
            "onselect": "onUserTableClick",
            "style": {"className" : "col-xs-12"},
            "showid": false,
            "cols": [
                {
                    "title": "{{lang-bind:name}}",
                    "field": "name"
                },
                {
                    "title": "Class Adı",
                    "field": "classname"
                },
                {"title": "Form Adı", "field": "formname"},
                {"title": "Eleman Adı", "field": "itemname" }
            ]
        }
    ]
}