{
  "title": "8. Ernährung , Trinkverhalten, Genussmittel",
  "class": "familienanamnese",
  "items": [
    {
      "type": "form",
      "title": "10. Familienanamnese",
      "name": "familienanamneseForm",
      "dbtable": "FAMILIENANAMNESE",
      "collapsed": "false",
      "showid": "false",
      "class": "familienanamnese",
      "items": [
        {
          "type": "hidden",
          "name": "id"
        },
        {
          "type": "hidden",
          "name": "patientId"
        },
        {
          "type": "html",
          "html": "<div class='col-xs-12'><h4>In unserer Familie, meinen Eltern oder deren Eltern gab es folgende Erkrankungen:</h4></div>"
        },
        {
          "type": "formgroup",
          "label": "Cardiovaskuläre Erkrankungen wie Bluthochdruck, Herzinfarkte, Schlaganfällem Anareuysmen",
          "visible": "true",
          "items": [
            {
              "type": "text",
              "label": "",
              "name": "bluthochdruckHerzinfarkteSchlaganfällemAnareuysmen"
            }
          ]
        },
        {
          "type": "formgroup",
          "label": "Autoimmunerkrankungen (MS, Morbus Reiter, Achalasie, Arteritis temporalis, Myasthenia gravis...)",
          "visible": "true",
          "items": [
            {
              "type": "text",
              "label": "",
              "name": "MSMorbusReiterAchalArterTemporalMyasthenGravis"
            }
          ]
        },
        {
          "type": "formgroup",
          "label": "Inmmundefekte",
          "visible": "true",
          "items": [
            {
              "type": "text",
              "label": "",
              "name": "inmmundefekte"
            }
          ]
        },
        {
          "type": "formgroup",
          "label": "Unklarer Kindstod",
          "visible": "true",
          "items": [
            {
              "type": "text",
              "label": "",
              "name": "unklarerKindstod"
            }
          ]
        },
        {
          "type": "formgroup",
          "label": "Tumorerkrankungen",
          "visible": "true",
          "items": [
            {
              "type": "text",
              "label": "",
              "name": "tumorerkrankungen"
            }
          ]
        },
        {
          "type": "button",
          "action": "submit",
          "name": "submitBtn",
          "onclick": "saveOrUpdate",
          "label": "{{lang-bind:save}}"
        },
        {
          "type": "button",
          "action": "dismiss",
          "name": "resetBtn",
          "onclick": "dismiss()",
          "label": "{{lang-bind:dismiss}}"
        },
        {
          "type": "button",
          "action": "reset",
          "name": "resetBtn",
          "label": "{{lang-bind:clear}}"
        }
      ]
    }
  ]
}
