{
  "title": "5. Operationen",
  "class": "operationen",
  "items": [
    {
      "type": "form",
      "title": "5. Operationen",
      "name": "operationenForm",
      "dbtable": "OPERATIONEN",
      "collapsed": "false",
      "showid": "false",
      "class": "operationen",
      "style": {
        "className": "col-md-12 col-xs-12"
      },
      "items": [
        {
          "type": "hidden",
          "name": "id"
        },
        {
          "type": "hidden",
          "name": "patientId"
        },
        {
          "type": "html",
          "html": "<p>Ich hatte folgende Operation: </p>"
        },
        {
          "type": "html",
          "html": "<p>Bitte beachreiben Sie, um welche OP es sich gehandelt hat und den Grund und Zeitpunkt der Operation</p>"
        },
        {
          "type": "text",
          "name": "operation",
          "label": "Operation",
          "style": {
            "className": "col-md-4 col-xs-12"
          }
        },
        {
          "type": "text",
          "name": "grund",
          "label": "Grund",
          "style": {
            "className": "col-md-4 col-xs-12"
          }
        },
        {
          "type": "text",
          "name": "zeitpunkt",
          "label": "Zeitpunkt",
          "style": {
            "className": "col-md-4 col-xs-12"
          }
        },
        {
          "type": "button",
          "action": "submit",
          "name": "submitBtn",
          "onclick": "saveOrUpdate",
          "label": "{{lang-bind:save}}"
        },
        {
          "type": "button",
          "action": "dismiss",
          "name": "resetBtn",
          "onclick": "dismiss()",
          "label": "{{lang-bind:dismiss}}"
        },
        {
          "type": "button",
          "action": "reset",
          "name": "resetBtn",
          "label": "{{lang-bind:clear}}"
        }
      ]
    },
    {
      "type": "table",
      "title": "Operationen List",
      "name": "operationentListTable",
      "dbtable": "OPERATIONEN",
      "bind": "operationenForm",
      "buttons": {
        "delete": true,
        "update": true,
        "copy": true,
        "print": true,
        "excel": true,
        "pdf": true
      },
      "style": {
        "className": "col-md-12 col-xs-12"
      },
      "cols": [
        {
          "title": "Operation",
          "field": "operation"
        },
        {
          "title": "Grund",
          "field": "grund"
        },
        {
          "title": "Zeitpunkt",
          "field": "zeitpunkt"
        }
      ]
    }, {
      "type": "formgroup",
      "label": "",
      "items": [
        {
          "type": "button",
          "label": "next",
          "onclick": "nextPage()"
        }
      ]
    }
  ]
}
