{
  "title": "A-Relevanz / Der Fuß- oder Zehengelenke (auch Fersensporn oder Achillessehnenprobleme…)",
  "class": "derFussOderZehengelenke",
  "items": [
    {
      "type": "form",
      "title": "A-Relevanz <i class='fa fa-arrow-right'></i> Der Fuß- oder Zehengelenke (auch Fersensporn oder Achillessehnenprobleme…)",
      "name": "derFussOderZehengelenkeForm",
      "dbtable": "A_RELEVANZ_derFussOderZehengelenke",
      "collapsed": "false",
      "showid": "false",
      "class": "derFussOderZehengelenke",
      "style": {
        "className": "col-md-12 col-xs-12"
      },
      "items": [
        {
          "type": "hidden",
          "name": "id"
        },
        {
          "type": "hidden",
          "name": "patientId"
        },
        {
          "type": "html",
          "html": "<h4>Fragen zur den Schmerzen der Fuß- oder Zehengelenkschmerzen</h4>"
        },
        {
          "type": "text",
          "name": "aRelevanz.derFussOderZehengelenke.diangoseFestgestellt",
          "label": "Bei mir wurde folgende Diangose festgestellt",
          "style": {
            "className": "col-md-6 col-xs-12"
          }
        },
        {
          "type": "text",
          "name": "aRelevanz.derFussOderZehengelenke.seitWannHabenSieDieSchmerzen",
          "label": "Seit wann haben Sie die Schmerzen",
          "style": {
            "className": "col-md-6 col-xs-12"
          }
        },
        {
          "type": "text",
          "name": "aRelevanz.derFussOderZehengelenke.beschreibenSieBitteIhrBeschwerdebild",
          "label": "Beschreiben sie bitte Ihr Beschwerdebild",
          "style": {
            "className": "col-md-6 col-xs-12"
          }
        },
        {
          "type": "text",
          "name": "aRelevanz.derFussOderZehengelenke.meineFussOderZehengelenkschmerzenSindAufgrund",
          "label": "Meine Fuß- oder Zehengelenkschmerzen sind aufgrund eines Unfalls entstanden. Bitte beschreiben sie den Unfalhergang!",
          "style": {
            "className": "col-md-6 col-xs-12"
          }
        },
        {
          "type": "html",
          "html": "<div id='shmerzenFileUpload1' class='col-xs-4'></div>"
        },
        {
          "type": "formgroup",
          "label": "<h4>Allgemeine Fragen zur Konstitution</h4>",
          "visible": "true",
          "style": {
            "className": "col-md-12 col-xs-12"
          },
          "items": [
            {
              "type": "checkbox",
              "name": "aRelevanz.derFussOderZehengelenke.allgemeineFragenZurKonstitution.meineSchmerzenImKniegelenkSindSehrStarkU",
              "value": "Meine schmerzen im Kniegelenk sind sehr stark und akut",
              "label": "Meine schmerzen im Kniegelenk sind sehr stark und akut",
              "style": {
                "className": "col-xs-12"
              }
            },
            {
              "type": "checkbox",
              "name": "aRelevanz.derFussOderZehengelenke.allgemeineFragenZurKonstitution.meineFussOderZehengelenkschmerzenSindEin",
              "value": "Meine Fuß- oder Zehengelenkschmerzen sind einseitig",
              "label": "Meine Fuß- oder Zehengelenkschmerzen sind einseitig",
              "style": {
                "className": "col-xs-12"
              }
            },
            {
              "type": "checkbox",
              "name": "aRelevanz.derFussOderZehengelenke.allgemeineFragenZurKonstitution.ichHabeBewegungseinschraenkungenInDenFus",
              "value": "Ich habe Bewegungseinschränkungen in den  Fuß- oder Zehengelenken",
              "label": "Ich habe Bewegungseinschränkungen in den  Fuß- oder Zehengelenken",
              "style": {
                "className": "col-xs-12"
              }
            },
            {
              "type": "checkbox",
              "name": "aRelevanz.derFussOderZehengelenke.allgemeineFragenZurKonstitution.ichHabeSchmerzenBeiBeruhrungOderKontakt",
              "value": "Ich habe Schmerzen bei Berührung oder Kontakt",
              "label": "Ich habe Schmerzen bei Berührung oder Kontakt",
              "style": {
                "className": "col-xs-12"
              }
            },
            {
              "type": "checkbox",
              "name": "aRelevanz.derFussOderZehengelenke.allgemeineFragenZurKonstitution.ichHabeEinKaeltegefuhlMeinerKnieFusseOde",
              "value": "Ich habe ein Kältegefühl meiner Knie, Füße oder Unterschenkel",
              "label": "Ich habe ein Kältegefühl meiner Knie, Füße oder Unterschenkel",
              "style": {
                "className": "col-xs-12"
              }
            },
            {
              "type": "checkbox",
              "name": "aRelevanz.derFussOderZehengelenke.allgemeineFragenZurKonstitution.ichHabeEineAbneigungGegenKaelte",
              "value": "Ich habe eine Abneigung gegen Kälte",
              "label": "Ich habe eine Abneigung gegen Kälte",
              "style": {
                "className": "col-xs-12"
              }
            },
            {
              "type": "checkbox",
              "name": "aRelevanz.derFussOderZehengelenke.allgemeineFragenZurKonstitution.meineSchmerzenWerdenBesserAufgrundVonWae",
              "value": "Meine schmerzen werden besser aufgrund von Wärme",
              "label": "Meine schmerzen werden besser aufgrund von Wärme",
              "style": {
                "className": "col-xs-12"
              }
            },
            {
              "type": "checkbox",
              "name": "aRelevanz.derFussOderZehengelenke.allgemeineFragenZurKonstitution.ichHabeEinenWeissenZungenbelag",
              "value": "Ich habe einen weißen Zungenbelag",
              "label": "Ich habe einen weißen Zungenbelag",
              "style": {
                "className": "col-xs-12"
              }
            },
            {
              "type": "checkbox",
              "name": "aRelevanz.derFussOderZehengelenke.allgemeineFragenZurKonstitution.ichHabeEineAllgemeinesKaeltegefuhlDerBei",
              "value": "Ich habe eine allgemeines Kältegefühl, der Beine oder der Hüfte",
              "label": "Ich habe eine allgemeines Kältegefühl, der Beine oder der Hüfte",
              "style": {
                "className": "col-xs-12"
              }
            },
            {
              "type": "checkbox",
              "name": "aRelevanz.derFussOderZehengelenke.allgemeineFragenZurKonstitution.meineFussOderZehengelenkeSindGeschwollen",
              "value": "Meine Fuß- oder Zehengelenke sind geschwollen",
              "label": "Meine Fuß- oder Zehengelenke sind geschwollen",
              "style": {
                "className": "col-xs-12"
              }
            },
            {
              "type": "checkbox",
              "name": "aRelevanz.derFussOderZehengelenke.allgemeineFragenZurKonstitution.ichHabeEineAbneigungGegenNaesse",
              "value": "Ich habe eine Abneigung gegen Nässe",
              "label": "Ich habe eine Abneigung gegen Nässe",
              "style": {
                "className": "col-xs-12"
              }
            },
            {
              "type": "checkbox",
              "name": "aRelevanz.derFussOderZehengelenke.allgemeineFragenZurKonstitution.ichHabeAmFussOderZehenEinTaubheitsgefuhl",
              "value": "Ich habe am Fuß oder Zehen ein Taubheitsgefühl",
              "label": "Ich habe am Fuß oder Zehen ein Taubheitsgefühl",
              "style": {
                "className": "col-xs-12"
              }
            },
            {
              "type": "checkbox",
              "name": "aRelevanz.derFussOderZehengelenke.allgemeineFragenZurKonstitution.eineVerbesserungMeinerSchmerzenTretenbei",
              "value": "Eine Verbesserung meiner Schmerzen tretenbei Trockenheit und Wärme ein",
              "label": "Eine Verbesserung meiner Schmerzen tretenbei Trockenheit und Wärme ein",
              "style": {
                "className": "col-xs-12"
              }
            },
            {
              "type": "checkbox",
              "name": "aRelevanz.derFussOderZehengelenke.allgemeineFragenZurKonstitution.meinZungenbelagIstWei0UndDick",
              "value": "Mein Zungenbelag ist wei0 und dick",
              "label": "Mein Zungenbelag ist wei0 und dick",
              "style": {
                "className": "col-xs-12"
              }
            },
            {
              "type": "checkbox",
              "name": "aRelevanz.derFussOderZehengelenke.allgemeineFragenZurKonstitution.ichHabeEineAbneigungGegenWaerme",
              "value": "Ich habe eine Abneigung gegen Wärme",
              "label": "Ich habe eine Abneigung gegen Wärme",
              "style": {
                "className": "col-xs-12"
              }
            },
            {
              "type": "checkbox",
              "name": "aRelevanz.derFussOderZehengelenke.allgemeineFragenZurKonstitution.ichHabeEineHitzegefuhlImBereichDerUnters",
              "value": "Ich habe eine Hitzegefühl im Bereich der Unterschenkel, Knöchel, Fußgelenk",
              "label": "Ich habe eine Hitzegefühl im Bereich der Unterschenkel, Knöchel, Fußgelenk",
              "style": {
                "className": "col-xs-12"
              }
            },
            {
              "type": "checkbox",
              "name": "aRelevanz.derFussOderZehengelenke.allgemeineFragenZurKonstitution.meineSchmerzenVerbessewrnSichBeiTrockenh",
              "value": "Meine Schmerzen verbessewrn sich bei Trockenheit",
              "label": "Meine Schmerzen verbessewrn sich bei Trockenheit",
              "style": {
                "className": "col-xs-12"
              }
            },
            {
              "type": "checkbox",
              "name": "aRelevanz.derFussOderZehengelenke.allgemeineFragenZurKonstitution.ichHabeEineAbneigungGegenNaesse",
              "value": "Ich habe eine  Abneigung gegen Nässe",
              "label": "Ich habe eine  Abneigung gegen Nässe",
              "style": {
                "className": "col-xs-12"
              }
            },
            {
              "type": "checkbox",
              "name": "aRelevanz.derFussOderZehengelenke.allgemeineFragenZurKonstitution.meinSchmerzIstEherBrennend",
              "value": "Mein Schmerz ist eher brennend",
              "label": "Mein Schmerz ist eher brennend",
              "style": {
                "className": "col-xs-12"
              }
            },
            {
              "type": "checkbox",
              "name": "aRelevanz.derFussOderZehengelenke.allgemeineFragenZurKonstitution.meinFussOderMeineZehenSindEntzundet",
              "value": "Mein fuß oder meine Zehen sind entzündet",
              "label": "Mein fuß oder meine Zehen sind entzündet",
              "style": {
                "className": "col-xs-12"
              }
            },
            {
              "type": "checkbox",
              "name": "aRelevanz.derFussOderZehengelenke.allgemeineFragenZurKonstitution.meinZungenkorperIstRot",
              "value": "Mein Zungenkörper ist rot",
              "label": "Mein Zungenkörper ist rot",
              "style": {
                "className": "col-xs-12"
              }
            },
            {
              "type": "checkbox",
              "name": "aRelevanz.derFussOderZehengelenke.allgemeineFragenZurKonstitution.meinZungenbelagIstDickUndGelb",
              "value": "Mein Zungenbelag ist dick und gelb",
              "label": "Mein Zungenbelag ist dick und gelb",
              "style": {
                "className": "col-xs-12"
              }
            },
            {
              "type": "checkbox",
              "name": "aRelevanz.derFussOderZehengelenke.allgemeineFragenZurKonstitution.meineSchmerzenSindAufgrundEinesTraumasVe",
              "value": "Meine Schmerzen sind aufgrund eines Traumas (Verstauchung, Prellung etc.)enstanden",
              "label": "Meine Schmerzen sind aufgrund eines Traumas (Verstauchung, Prellung etc.)enstanden",
              "style": {
                "className": "col-xs-12"
              }
            },
            {
              "type": "checkbox",
              "name": "aRelevanz.derFussOderZehengelenke.allgemeineFragenZurKonstitution.meinSchmerzFuhltIschZiehendAn",
              "value": "Mein Schmerz fühlt isch ziehend an",
              "label": "Mein Schmerz fühlt isch ziehend an",
              "style": {
                "className": "col-xs-12"
              }
            },
            {
              "type": "checkbox",
              "name": "aRelevanz.derFussOderZehengelenke.allgemeineFragenZurKonstitution.beiMeinemScmherzHandeltEsSichUmEinenPunk",
              "value": "Bei meinem Scmherz handelt es sich um einen punktuellen Schmerz",
              "label": "Bei meinem Scmherz handelt es sich um einen punktuellen Schmerz",
              "style": {
                "className": "col-xs-12"
              }
            },
            {
              "type": "checkbox",
              "name": "aRelevanz.derFussOderZehengelenke.allgemeineFragenZurKonstitution.meineSchmerzenVerschlimmernSichNachts",
              "value": "Meine Schmerzen verschlimmern sich nachts",
              "label": "Meine Schmerzen verschlimmern sich nachts",
              "style": {
                "className": "col-xs-12"
              }
            },
            {
              "type": "checkbox",
              "name": "aRelevanz.derFussOderZehengelenke.allgemeineFragenZurKonstitution.meineFussOderZehenschmerzenSindChronisch",
              "value": "Meine Fuß- oder Zehenschmerzen sind chronisch",
              "label": "Meine Fuß- oder Zehenschmerzen sind chronisch",
              "style": {
                "className": "col-xs-12"
              }
            }
          ]
        },
        {
          "type": "formgroup",
          "label": "<h4>Spezifische Fragen zur den Schmerzen</h4>",
          "visible": "true",
          "style": {
            "className": "col-md-12 col-xs-12"
          },
          "items": [
            {
              "type": "html",
              "html": "bitte geben sie zu jeder zutrffenden Frage die Schmerzstärke (0-10) in das vorgesehene Feld ein (0= kein Schmerz – 10 ist Maximalschmerz) <br><br>"
            }
          ]
        },
        {
          "type": "formgroup",
          "label": "",
          "visible": "true",
          "style": {
            "className": "col-md-6 col-xs-12"
          },
          "items": [
            {
              "type": "select",
              "name": "aRelevanz.derFussOderZehengelenke.spezifischeFragen.meineFussZehenschmerzenTetenVorallemWaehrendDesBerga",
              "label": "Meine Fuß-Zehenschmerzen teten vorallem während des Bergabgehens oder wenn ich die Treppe hinunter gehe auf",
              "dbtable": "SCHMERZ",
              "storetype": "Number",
              "style": {
                "className": "col-md-12 col-xs-12"
              },
              "datamap": {
                "id": "id",
                "text": "value"
              }
            },
            {
              "type": "select",
              "name": "aRelevanz.derFussOderZehengelenke.spezifischeFragen.ichHabeSchmerzenWennIchLaengereStreckenGehe",
              "label": "Ich habe Schmerzen, wenn ich längere Strecken gehe",
              "dbtable": "SCHMERZ",
              "storetype": "Number",
              "style": {
                "className": "col-md-12 col-xs-12"
              },
              "datamap": {
                "id": "id",
                "text": "value"
              }
            },
            {
              "type": "select",
              "name": "aRelevanz.derFussOderZehengelenke.spezifischeFragen.ichHabeSchmerzenWennIchEineTreppeHochGeheOderBergauf",
              "label": "Ich habe Schmerzen, wenn ich eine Treppe hoch gehe oder Bergauf gehe",
              "dbtable": "SCHMERZ",
              "storetype": "Number",
              "style": {
                "className": "col-md-12 col-xs-12"
              },
              "datamap": {
                "id": "id",
                "text": "value"
              }
            },
            {
              "type": "select",
              "name": "aRelevanz.derFussOderZehengelenke.spezifischeFragen.waehrendDsLaengerenSitzensTretenAuchImHuftbereich",
              "label": "Während ds längeren Sitzens treten auch Schmerzen im Hüftbereich auf, die sich im Fuß- oder Zehengelenke bemerkbar machen",
              "dbtable": "SCHMERZ",
              "storetype": "Number",
              "style": {
                "className": "col-md-12 col-xs-12"
              },
              "datamap": {
                "id": "id",
                "text": "value"
              }
            },
            {
              "type": "select",
              "name": "aRelevanz.derFussOderZehengelenke.spezifischeFragen.ichHabeFussZehenschmerzenWennIchLaengerGessesenHaben",
              "label": "Ich habe Fuß-Zehenschmerzen, wenn ich länger gessesen haben und muss dann loslaufen",
              "dbtable": "SCHMERZ",
              "storetype": "Number",
              "style": {
                "className": "col-md-12 col-xs-12"
              },
              "datamap": {
                "id": "id",
                "text": "value"
              }
            },
            {
              "type": "select",
              "name": "aRelevanz.derFussOderZehengelenke.spezifischeFragen.ichHabeVorAllemSchmerzenImFussOderZehenbereichWennIch",
              "label": "Ich habe vor allem Schmerzen im Fuß-oder Zehenbereich, wenn ich jogge",
              "dbtable": "SCHMERZ",
              "storetype": "Number",
              "style": {
                "className": "col-md-12 col-xs-12"
              },
              "datamap": {
                "id": "id",
                "text": "value"
              }
            },
            {
              "type": "select",
              "name": "aRelevanz.derFussOderZehengelenke.spezifischeFragen.ichHabeVberstaerktFussOderZehenschmerzenWennIchMitAn",
              "label": "Ich habe vberstärkt Fuß-oder Zehenschmerzen, wenn ich mit angewinkelten Beinen Sitzen muss. Strecke ich die Beine aus, so verbessern sich die Schmerzen",
              "dbtable": "SCHMERZ",
              "storetype": "Number",
              "style": {
                "className": "col-md-12 col-xs-12"
              },
              "datamap": {
                "id": "id",
                "text": "value"
              }
            },
            {
              "type": "select",
              "name": "aRelevanz.derFussOderZehengelenke.spezifischeFragen.ichHabeSchmerzenWennIchDieBeineUbereinanderSchlage",
              "label": "Ich habe Schmerzen, wenn ich die Beine übereinander schlage",
              "dbtable": "SCHMERZ",
              "storetype": "Number",
              "style": {
                "className": "col-md-12 col-xs-12"
              },
              "datamap": {
                "id": "id",
                "text": "value"
              }
            }
          ]
        },
        {
          "type": "formgroup",
          "label": "",
          "visible": "true",
          "style": {
            "className": "col-md-6 col-xs-12"
          },
          "items": [
            {
              "type": "select",
              "name": "aRelevanz.derFussOderZehengelenke.spezifischeFragen.ichHabeStaerkeFussOderZehenschmerzenWennIchVielAufDer",
              "label": "Ich habe stärke Fuß- oder Zehenschmerzen, wenn ich viel auf der Leiter stehen muss",
              "dbtable": "SCHMERZ",
              "storetype": "Number",
              "style": {
                "className": "col-md-12 col-xs-12"
              },
              "datamap": {
                "id": "id",
                "text": "value"
              }
            },
            {
              "type": "select",
              "name": "aRelevanz.derFussOderZehengelenke.spezifischeFragen.ichHabeVorAllemFussOderZehenschmerzenWennIchIonDieHocke",
              "label": "Ich habe vor allem Fuß-oder Zehenschmerzen, wenn ich ion die Hocke gehe",
              "dbtable": "SCHMERZ",
              "storetype": "Number",
              "style": {
                "className": "col-md-12 col-xs-12"
              },
              "datamap": {
                "id": "id",
                "text": "value"
              }
            },
            {
              "type": "select",
              "name": "aRelevanz.derFussOderZehengelenke.spezifischeFragen.meineFussZehenscherzenVerstaerkenSichWennIchInDenSch",
              "label": "Meine Fuß-Zehenscherzen verstärken sich, wenn ich in den Schneidersitz gehe",
              "dbtable": "SCHMERZ",
              "storetype": "Number",
              "style": {
                "className": "col-md-12 col-xs-12"
              },
              "datamap": {
                "id": "id",
                "text": "value"
              }
            },
            {
              "type": "select",
              "name": "aRelevanz.derFussOderZehengelenke.spezifischeFragen.meineFussOderZehenschmerzenVerstaerkenSichDurchLanges",
              "label": "Meine Fuß-oder Zehenschmerzen verstärken sich durch langes Stehen",
              "dbtable": "SCHMERZ",
              "storetype": "Number",
              "style": {
                "className": "col-md-12 col-xs-12"
              },
              "datamap": {
                "id": "id",
                "text": "value"
              }
            },
            {
              "type": "select",
              "name": "aRelevanz.derFussOderZehengelenke.spezifischeFragen.meineFussOderZehenschmerzenVerstaerkenSichDurchRealtiv",
              "label": "Meine Fuß-oder Zehenschmerzen verstärken sich durch realtiv viel Laufen (Gehen)",
              "dbtable": "SCHMERZ",
              "storetype": "Number",
              "style": {
                "className": "col-md-12 col-xs-12"
              },
              "datamap": {
                "id": "id",
                "text": "value"
              }
            },
            {
              "type": "select",
              "name": "aRelevanz.derFussOderZehengelenke.spezifischeFragen.sindNachEinerVwerletzungOperationVonHufteOder",
              "label": "Meine Fuß- oder Zehenschmerzen sind nach einer Vwerletzung oder Operation von Hüfte oder Kniegelenkes",
              "dbtable": "SCHMERZ",
              "storetype": "Number",
              "style": {
                "className": "col-md-12 col-xs-12"
              },
              "datamap": {
                "id": "id",
                "text": "value"
              }
            },
            {
              "type": "select",
              "name": "aRelevanz.derFussOderZehengelenke.spezifischeFragen.tretenVerstaerktWaehrendDesFahrradfahrensAuf",
              "label": "Meine Fuß-oder Zehenschmerzen treten verstärkt während des Fahrradfahrens auf",
              "dbtable": "SCHMERZ",
              "storetype": "Number",
              "style": {
                "className": "col-md-12 col-xs-12"
              },
              "datamap": {
                "id": "id",
                "text": "value"
              }
            }
          ]
        },
        {
          "type": "formgroup",
          "label": "<h4>Haltungs – und Bewegungsanalyse</h4>",
          "visible": "true",
          "style": {
            "className": "col-md-12 col-xs-12"
          },
          "items": [
            {
              "type": "textarea",
              "name": "aRelevanz.derFussOderZehengelenke.haltungsUndBewegungsanalyse.wasMachenSieBeruflich",
              "label": "Bewegungs-und Haltungsanamnese (ist sehr wichtig – nehmen sie sich Zeit) <br> Was machen sie beruflich?",
              "style": {
                "className": "col-md-12 col-xs-12"
              }
            },
            {
              "type": "textarea",
              "name": "aRelevanz.derFussOderZehengelenke.haltungsUndBewegungsanalyse.beschreibenInKurzenSatzen",
              "label": "Bitte genau beschreiben in kurzen Sätzen, welche Bewegungsabläufe Ihnen Ihre Beruf oder Tätigkeit abverlangt: <br> (z.B. Ich stehe überwiegend und muss mich sehr oft nach der linken Seite bücken etc.)",
              "style": {
                "className": "col-md-12 col-xs-12"
              }
            },
            {
              "type": "textarea",
              "name": "aRelevanz.derFussOderZehengelenke.haltungsUndBewegungsanalyse.ruhestandUndWarFruherImFolgendenBeruf",
              "label": "Ich bin im Ruhestand und war früher im folgenden Beruf(en) tätig",
              "style": {
                "className": "col-md-12 col-xs-12"
              }
            }
          ]
        },
        {
          "type": "formgroup",
          "label": "<h4>Ich befinde mich oft in folgenden Haltungen und Bewegungsmuster</h4>",
          "visible": "true",
          "style": {
            "className": "col-md-12 col-xs-12"
          },
          "items": [
            {
              "type": "html",
              "html": "Analysieren des Tagesablaufes bezogen auf Haltung und Bewegung:"
            },
            {
              "type": "formgroup",
              "label": "Ich habe einen sitzenden Beruf und verbringe damit",
              "visible": "true",
              "style": {
                "className": "col-md-12 col-xs-12"
              },
              "items": [
                {
                  "type": "text",
                  "label": "Sitzen",
                  "name": "aRelevanz.derFussOderZehengelenke.haltungenUndBewegungsmuster.sitzendenBerufUndVerbringeDamit.sitzen",
                  "style": {
                    "className": "col-sm-5 col-xs-10"
                  }
                },
                {
                  "type": "text",
                  "label": "stehen/laufen",
                  "name": "aRelevanz.derFussOderZehengelenke.haltungenUndBewegungsmuster.sitzendenBerufUndVerbringeDamit.stehenLaufen",
                  "style": {
                    "className": "col-sm-5 col-xs-10"
                  }
                },
                {
                  "type": "html",
                  "html": "<div class='col-sm-2 col-xs-2'>Stunden/Tag</div>"
                }
              ]
            },
            {
              "type": "formgroup",
              "label": "Ich laufe und stehe überwiegend im Beruf",
              "visible": "true",
              "style": {
                "className": "col-md-12 col-xs-12"
              },
              "items": [
                {
                  "type": "text",
                  "label": "Sitzen",
                  "name": "aRelevanz.derFussOderZehengelenke.haltungenUndBewegungsmuster.laufeUndSteheUberwiegend.sitzen",
                  "style": {
                    "className": "col-sm-5 col-xs-10"
                  }
                },
                {
                  "type": "text",
                  "label": "stehen/laufen",
                  "name": "aRelevanz.derFussOderZehengelenke.haltungenUndBewegungsmuster.laufeUndSteheUberwiegend.stehenLaufen",
                  "style": {
                    "className": "col-sm-5 col-xs-10"
                  }
                },
                {
                  "type": "html",
                  "html": "<div class='col-sm-2 col-xs-2'>Stunden/Tag</div>"
                }
              ]
            },
            {
              "type": "formgroup",
              "label": "Ich stehe überwiegend und bin oft in einer vorgebeugten Haltung (Gärnter, Reinigung)",
              "visible": "true",
              "style": {
                "className": "col-md-12 col-xs-12"
              },
              "items": [
                {
                  "type": "text",
                  "label": "Sitzen",
                  "name": "aRelevanz.derFussOderZehengelenke.haltungenUndBewegungsmuster.steheUberwiegenUndVorgebeugtenHaltung.sitzen",
                  "style": {
                    "className": "col-sm-5 col-xs-10"
                  }
                },
                {
                  "type": "text",
                  "label": "stehen/laufen",
                  "name": "aRelevanz.derFussOderZehengelenke.haltungenUndBewegungsmuster.steheUberwiegenUndVorgebeugtenHaltung.stehenLaufen",
                  "style": {
                    "className": "col-sm-5 col-xs-10"
                  }
                },
                {
                  "type": "html",
                  "html": "<div class='col-sm-2 col-xs-2'>Stunden/Tag</div>"
                }
              ]
            },
            {
              "type": "formgroup",
              "label": "Ich sitze, stehe und laufe im Beruf weg lassen! steht schon da",
              "visible": "true",
              "style": {
                "className": "col-md-12 col-xs-12"
              },
              "items": [
                {
                  "type": "text",
                  "label": "Sitzen",
                  "name": "aRelevanz.derFussOderZehengelenke.haltungenUndBewegungsmuster.steheUndLaufeImBeruf.sitzen1",
                  "style": {
                    "className": "col-sm-5 col-xs-10"
                  }
                },
                {
                  "type": "text",
                  "label": "stehen/laufen",
                  "name": "aRelevanz.derFussOderZehengelenke.haltungenUndBewegungsmuster.steheUndLaufeImBeruf.stehenLaufen1",
                  "style": {
                    "className": "col-sm-5 col-xs-10"
                  }
                },
                {
                  "type": "html",
                  "html": "<div class='col-sm-2 col-xs-2'>Stunden/Tag</div>"
                },
                {
                  "type": "linebreak",
                  "style": {
                    "className": "col-sm-12 col-xs-12"
                  }
                },
                {
                  "type": "text",
                  "label": "Sitzen",
                  "name": "aRelevanz.derFussOderZehengelenke.haltungenUndBewegungsmuster.steheUndLaufeImBeruf.sitzen2",
                  "style": {
                    "className": "col-sm-5 col-xs-10"
                  }
                },
                {
                  "type": "text",
                  "label": "stehen/laufen",
                  "name": "aRelevanz.derFussOderZehengelenke.haltungenUndBewegungsmuster.steheUndLaufeImBeruf.stehenLaufen2",
                  "style": {
                    "className": "col-sm-5 col-xs-10"
                  }
                },
                {
                  "type": "html",
                  "html": "<div class='col-sm-2 col-xs-2'>Stunden/Tag</div>"
                }
              ]
            },
            {
              "type": "formgroup",
              "label": "Haushalt, weg lassen! steht schon da",
              "visible": "true",
              "style": {
                "className": "col-md-12 col-xs-12"
              },
              "items": [
                {
                  "type": "text",
                  "label": "Sitzen",
                  "name": "aRelevanz.derFussOderZehengelenke.haltungenUndBewegungsmuster.haushaltStehenLaufen.sitzen",
                  "style": {
                    "className": "col-sm-5 col-xs-10"
                  }
                },
                {
                  "type": "text",
                  "label": "stehen/laufen",
                  "name": "aRelevanz.derFussOderZehengelenke.haltungenUndBewegungsmuster.haushaltStehenLaufen.stehenLaufen",
                  "style": {
                    "className": "col-sm-5 col-xs-10"
                  }
                },
                {
                  "type": "html",
                  "html": "<div class='col-sm-2 col-xs-2'>Stunden/Tag</div>"
                }
              ]
            },
            {
              "type": "formgroup",
              "label": "Lesen / Fernsehen",
              "visible": "true",
              "style": {
                "className": "col-md-12 col-xs-12"
              },
              "items": [
                {
                  "type": "text",
                  "label": "Sitzen",
                  "name": "aRelevanz.derFussOderZehengelenke.haltungenUndBewegungsmuster.lesenFernsehen.sitzen",
                  "style": {
                    "className": "col-sm-5 col-xs-10"
                  }
                },
                {
                  "type": "text",
                  "label": "stehen/laufen",
                  "name": "aRelevanz.derFussOderZehengelenke.haltungenUndBewegungsmuster.lesenFernsehen.stehenLaufen",
                  "style": {
                    "className": "col-sm-5 col-xs-10"
                  }
                },
                {
                  "type": "html",
                  "html": "<div class='col-sm-2 col-xs-2'>Stunden/Tag</div>"
                }
              ]
            },
            {
              "type": "formgroup",
              "label": "Sitzen während des Essens",
              "visible": "true",
              "style": {
                "className": "col-md-12 col-xs-12"
              },
              "items": [
                {
                  "type": "text",
                  "label": "Sitzen",
                  "name": "aRelevanz.derFussOderZehengelenke.haltungenUndBewegungsmuster.sitzenWahrendDesEssens.sitzen",
                  "style": {
                    "className": "col-sm-5 col-xs-10"
                  }
                },
                {
                  "type": "text",
                  "label": "stehen/laufen",
                  "name": "aRelevanz.derFussOderZehengelenke.haltungenUndBewegungsmuster.sitzenWahrendDesEssens.stehenLaufen",
                  "style": {
                    "className": "col-sm-5 col-xs-10"
                  }
                },
                {
                  "type": "html",
                  "html": "<div class='col-sm-2 col-xs-2'>Stunden/Tag</div>"
                }
              ]
            },
            {
              "type": "formgroup",
              "label": "andere täglich Tätigkeiten im Sitzen",
              "visible": "true",
              "style": {
                "className": "col-md-12 col-xs-12"
              },
              "items": [
                {
                  "type": "text",
                  "label": "Sitzen",
                  "name": "aRelevanz.derFussOderZehengelenke.haltungenUndBewegungsmuster.andereTaglichTatigkeitenImSitzen.sitzen",
                  "style": {
                    "className": "col-sm-5 col-xs-10"
                  }
                },
                {
                  "type": "text",
                  "label": "stehen/laufen",
                  "name": "aRelevanz.derFussOderZehengelenke.haltungenUndBewegungsmuster.andereTaglichTatigkeitenImSitzen.stehenLaufen",
                  "style": {
                    "className": "col-sm-5 col-xs-10"
                  }
                },
                {
                  "type": "html",
                  "html": "<div class='col-sm-2 col-xs-2'>Stunden/Tag</div>"
                }
              ]
            },
            {
              "type": "formgroup",
              "label": "andere täglich Tätigkeiten im Stehen/Laufen",
              "visible": "true",
              "style": {
                "className": "col-md-12 col-xs-12"
              },
              "items": [
                {
                  "type": "text",
                  "label": "Sitzen",
                  "name": "aRelevanz.derFussOderZehengelenke.haltungenUndBewegungsmuster.andereTaglichTatigkeitenImStehenLaufen.sitzen",
                  "style": {
                    "className": "col-sm-5 col-xs-10"
                  }
                },
                {
                  "type": "text",
                  "label": "stehen/laufen",
                  "name": "aRelevanz.derFussOderZehengelenke.haltungenUndBewegungsmuster.andereTaglichTatigkeitenImStehenLaufen.stehenLaufen",
                  "style": {
                    "className": "col-sm-5 col-xs-10"
                  }
                },
                {
                  "type": "html",
                  "html": "<div class='col-sm-2 col-xs-2'>Stunden/Tag</div>"
                }
              ]
            },
            {
              "type": "formgroup",
              "label": "Summe",
              "visible": "true",
              "style": {
                "className": "col-md-12 col-xs-12"
              },
              "items": [
                {
                  "type": "text",
                  "label": "Sitzen",
                  "name": "aRelevanz.derFussOderZehengelenke.haltungenUndBewegungsmuster.summe.sitzen",
                  "style": {
                    "className": "col-sm-5 col-xs-10"
                  }
                },
                {
                  "type": "text",
                  "label": "stehen/laufen",
                  "name": "aRelevanz.derFussOderZehengelenke.haltungenUndBewegungsmuster.summe.stehenLaufen",
                  "style": {
                    "className": "col-sm-5 col-xs-10"
                  }
                },
                {
                  "type": "html",
                  "html": "<div class='col-sm-2 col-xs-2'>Stunden/Tag</div>"
                }
              ]
            },
            {
              "type": "formgroup",
              "label": "Stunden pro Tag:",
              "visible": "true",
              "style": {
                "className": "col-md-12 col-xs-12"
              },
              "items": [
                {
                  "type": "text",
                  "label": "Sitzen",
                  "name": "aRelevanz.derFussOderZehengelenke.haltungenUndBewegungsmuster.stundenProTag.sitzen",
                  "style": {
                    "className": "col-sm-10 col-xs-10"
                  }
                },
                {
                  "type": "html",
                  "html": "<div class='col-sm-2 col-xs-2'>Stunden/pro Tag</div>"
                },
                {
                  "type": "text",
                  "label": "Stehen/Laufen",
                  "name": "aRelevanz.derFussOderZehengelenke.haltungenUndBewegungsmuster.stundenProTag.stehenLaufen",
                  "style": {
                    "className": "col-sm-10 col-xs-10"
                  }
                },
                {
                  "type": "html",
                  "html": "<div class='col-sm-2 col-xs-2'>Stunden/pro Tag</div>"
                }
              ]
            },
            {
              "type": "formgroup",
              "label": "",
              "visible": "true",
              "style": {
                "className": "col-md-12 col-xs-12"
              },
              "items": [
                {
                  "type": "html",
                  "html": "<div class='col-xs-12'><p>bstimmte Berufsgruppen haben oft bestimmte Haltugs- und Bewegungsabläufe. Kreuzen sie bitte den entsprechende Berufsgruppe an, die am ihren Bewegungabläufen nahe kommt:</p></div>"
                },
                {
                  "type": "checkbox",
                  "name": "aRelevanz.derFussOderZehengelenke.berufsgruppeBewegungablaufen.ichArbeiteImBuroUndSitzeVielAmPC",
                  "value": "Ich arbeite im Büro und sitze viel am PC",
                  "label": "Ich arbeite im Büro und sitze viel am PC",
                  "style": {
                    "className": "col-xs-12"
                  }
                },
                {
                  "type": "checkbox",
                  "name": "aRelevanz.derFussOderZehengelenke.berufsgruppeBewegungablaufen.ichBinImPflegebereichTaetigKrankenschwesterAltenpflege",
                  "value": "Ich bin im Pflegebereich tätig (Krankenschwester, Altenpflege)",
                  "label": "Ich bin im Pflegebereich tätig (Krankenschwester, Altenpflege)",
                  "style": {
                    "className": "col-xs-12"
                  }
                },
                {
                  "type": "checkbox",
                  "name": "aRelevanz.derFussOderZehengelenke.berufsgruppeBewegungablaufen.ichBinVieleVorgebeutWieInBerufenGaertner",
                  "value": "Ich arbeite viel in vorgebeugter Haltung, wie in den Berufen (Gärtner, Dachdecker, Bauarbeiter, Zimmerfrau in Hotel, Fließenleger)",
                  "label": "Ich arbeite viel in vorgebeugter Haltung, wie in den Berufen (Gärtner, Dachdecker, Bauarbeiter, Zimmerfrau in Hotel, Fließenleger)",
                  "style": {
                    "className": "col-xs-12"
                  }
                },
                {
                  "type": "checkbox",
                  "name": "aRelevanz.derFussOderZehengelenke.berufsgruppeBewegungablaufen.ichBinImServiceHotelGastaetteBeschaeftigt",
                  "value": "Ich bin im Service (Hotel, Gastätte …) beschäftigt",
                  "label": "Ich bin im Service (Hotel, Gastätte …) beschäftigt",
                  "style": {
                    "className": "col-xs-12"
                  }
                },
                {
                  "type": "checkbox",
                  "name": "aRelevanz.derFussOderZehengelenke.berufsgruppeBewegungablaufen.ichBinBeruflichVielMitDemAutoUnterwegs",
                  "value": "Ich bin beruflich viel mit dem Auto unterwegs",
                  "label": "Ich bin beruflich viel mit dem Auto unterwegs",
                  "style": {
                    "className": "col-xs-12"
                  }
                },
                {
                  "type": "checkbox",
                  "name": "aRelevanz.derFussOderZehengelenke.berufsgruppeBewegungablaufen.ichSitzeVielAufDemGabelstablerBaggerEtc",
                  "value": "Ich  sitze viel auf dem Gabelstabler, Bagger etc.",
                  "label": "Ich  sitze viel auf dem Gabelstabler, Bagger etc.",
                  "style": {
                    "className": "col-xs-12"
                  }
                },
                {
                  "type": "checkbox",
                  "name": "aRelevanz.derFussOderZehengelenke.berufsgruppeBewegungablaufen.ichBinInDerFabrikTaetigUndSteheUberwiege",
                  "value": "Ich bin in der Fabrik tätig und stehe überwiegend und muss mich auch immer wieder zu einer oder beiden seiten drehen",
                  "label": "Ich bin in der Fabrik tätig und stehe überwiegend und muss mich auch immer wieder zu einer oder beiden seiten drehen",
                  "style": {
                    "className": "col-xs-12"
                  }
                },
                {
                  "type": "checkbox",
                  "name": "aRelevanz.derFussOderZehengelenke.berufsgruppeBewegungablaufen.ichBinImVerkaufTaetigUndSteheSehrVielUnd",
                  "value": "Ich bin im Verkauf tätig und stehe sehr viel und muss mich jedoch oft nach einer Seite drehen (z. B. Bäckerverkäuferin dreht sich, um Brot aus dem Regal zu holen)",
                  "label": "Ich bin im Verkauf tätig und stehe sehr viel und muss mich jedoch oft nach einer Seite drehen (z. B. Bäckerverkäuferin dreht sich, um Brot aus dem Regal zu holen)",
                  "style": {
                    "className": "col-xs-12"
                  }
                },
                {
                  "type": "checkbox",
                  "name": "aRelevanz.derFussOderZehengelenke.berufsgruppeBewegungablaufen.ichBinImVerkaufTaetigUndSteheSehrViel",
                  "value": "Ich bin im Verkauf tätig und stehe sehr viel",
                  "label": "Ich bin im Verkauf tätig und stehe sehr viel",
                  "style": {
                    "className": "col-xs-12"
                  }
                },
                {
                  "type": "checkbox",
                  "name": "aRelevanz.derFussOderZehengelenke.berufsgruppeBewegungablaufen.ichInEinemBerufTaetigInDemIchSteheUndVie",
                  "value": "Ich in einem Beruf tätig in dem ich stehe und viel über Kopf arbeite (Maler, Verputzer, KFZ-Mechaniker …)",
                  "label": "Ich in einem Beruf tätig in dem ich stehe und viel über Kopf arbeite (Maler, Verputzer, KFZ-Mechaniker …)",
                  "style": {
                    "className": "col-xs-12"
                  }
                },
                {
                  "type": "checkbox",
                  "name": "aRelevanz.derFussOderZehengelenke.berufsgruppeBewegungablaufen.ichBinFriseurUndSteheViel",
                  "value": "Ich bin Friseur und stehe viel",
                  "label": "Ich bin Friseur und stehe viel",
                  "style": {
                    "className": "col-xs-12"
                  }
                },
                {
                  "type": "checkbox",
                  "name": "aRelevanz.derFussOderZehengelenke.berufsgruppeBewegungablaufen.ichBinAnDerKasseInEinemMarktUndSitzeDabei",
                  "value": "Ich bin an der Kasse in einem Markt und sitze dabei",
                  "label": "Ich bin an der Kasse in einem Markt und sitze dabei",
                  "style": {
                    "className": "col-xs-12"
                  }
                },
                {
                  "type": "checkbox",
                  "name": "aRelevanz.derFussOderZehengelenke.berufsgruppeBewegungablaufen.ichBinZahnarztOderZahnarztgehilfin",
                  "value": "Ich bin Zahnarzt oder Zahnarztgehilfin",
                  "label": "Ich bin Zahnarzt oder Zahnarztgehilfin",
                  "style": {
                    "className": "col-xs-12"
                  }
                },
                {
                  "type": "checkbox",
                  "name": "aRelevanz.derFussOderZehengelenke.berufsgruppeBewegungablaufen.ichBinVerlegeFussbodenUndKnieDabeiSehrVi",
                  "value": "Ich bin verlege Fußböden und knie dabei sehr viel (auch andere Berufe, die kniend tätig sind)",
                  "label": "Ich bin verlege Fußböden und knie dabei sehr viel (auch andere Berufe, die kniend tätig sind)",
                  "style": {
                    "className": "col-xs-12"
                  }
                }
              ]
            },
            {
              "type": "formgroup",
              "label": "Zusätzlich beschäftige ich mich in der Freizeit mit:",
              "visible": "true",
              "style": {
                "className": "col-md-12 col-xs-12"
              },
              "items": [
                {
                  "type": "checkbox",
                  "name": "aRelevanz.derFussOderZehengelenke.zusaetzlichBeschaeftigeIchMichFreizeit.sportWieWalkingLaufenCrosstrainer",
                  "value": "Sport wie Walking, Laufen, Crosstrainer",
                  "label": "Sport wie Walking, Laufen, Crosstrainer",
                  "style": {
                    "className": "col-xs-12"
                  }
                },
                {
                  "type": "text",
                  "label": "Sport wie Walking, Laufen, Crosstrainer (Stunden/Woche)",
                  "name": "aRelevanz.derFussOderZehengelenke.zusaetzlichBeschaeftigeIchMichFreizeit.stundenWoche.sportWieWalkingLaufenCrosstrainer",
                  "visible": false,
                  "toggleif": "aRelevanz.derFussOderZehengelenke.zusaetzlichBeschaeftigeIchMichFreizeit.sportWieWalkingLaufenCrosstrainer:equals:true",
                  "style": {
                    "className": "col-xs-12"
                  }
                },
                {
                  "type": "checkbox",
                  "name": "aRelevanz.derFussOderZehengelenke.zusaetzlichBeschaeftigeIchMichFreizeit.fahrradFahrenErgometer",
                  "value": "Fahrrad fahren/Ergometer",
                  "label": "Fahrrad fahren/Ergometer",
                  "style": {
                    "className": "col-xs-12"
                  }
                },
                {
                  "type": "text",
                  "label": "Fahrrad fahren/Ergometer (Stunden/Woche)",
                  "name": "aRelevanz.derFussOderZehengelenke.zusaetzlichBeschaeftigeIchMichFreizeit.stundenWoche.fahrradFahrenErgometer",
                  "visible": false,
                  "toggleif": "aRelevanz.derFussOderZehengelenke.zusaetzlichBeschaeftigeIchMichFreizeit.fahrradFahrenErgometer:equals:true",
                  "style": {
                    "className": "col-xs-12"
                  }
                },
                {
                  "type": "checkbox",
                  "name": "aRelevanz.derFussOderZehengelenke.zusaetzlichBeschaeftigeIchMichFreizeit.ichMacheRegelmaessigGymnastikYogaEtc",
                  "value": "Ich mache regelmäßig Gymnastik/Yoga etc.",
                  "label": "Ich mache regelmäßig Gymnastik/Yoga etc.",
                  "style": {
                    "className": "col-xs-12"
                  }
                },
                {
                  "type": "text",
                  "label": "Ich mache regelmäßig Gymnastik/Yoga etc. (Stunden/Woche)",
                  "name": "aRelevanz.derFussOderZehengelenke.zusaetzlichBeschaeftigeIchMichFreizeit.stundenWoche.ichMacheRegelmaessigGymnastikYoga",
                  "visible": false,
                  "toggleif": "aRelevanz.derFussOderZehengelenke.zusaetzlichBeschaeftigeIchMichFreizeit.ichMacheRegelmaessigGymnastikYogaEtc:equals:true",
                  "style": {
                    "className": "col-xs-12"
                  }
                },
                {
                  "type": "checkbox",
                  "name": "aRelevanz.derFussOderZehengelenke.zusaetzlichBeschaeftigeIchMichFreizeit.sitzendeHobbySchachKartenSpielen",
                  "value": "Sitzende / Hobbys (Schach, Karten spielen…)",
                  "label": "Sitzende / Hobbys (Schach, Karten spielen…)",
                  "style": {
                    "className": "col-xs-12"
                  }
                },
                {
                  "type": "text",
                  "label": "Sitzende / Hobbys (Schach, Karten spielen…) (Stunden/Woche)",
                  "name": "aRelevanz.derFussOderZehengelenke.zusaetzlichBeschaeftigeIchMichFreizeit.stundenWoche.sitzendeHobbySchachKartenSpielen",
                  "visible": false,
                  "toggleif": "aRelevanz.derFussOderZehengelenke.zusaetzlichBeschaeftigeIchMichFreizeit.sitzendeHobbySchachKartenSpielen:equals:true",
                  "style": {
                    "className": "col-xs-12"
                  }
                },
                {
                  "type": "checkbox",
                  "name": "aRelevanz.derFussOderZehengelenke.zusaetzlichBeschaeftigeIchMichFreizeit.fitnesstrainingMitGeraeten",
                  "value": "Fitnesstraining mit Geräten",
                  "label": "Fitnesstraining mit Geräten",
                  "style": {
                    "className": "col-xs-12"
                  }
                },
                {
                  "type": "text",
                  "label": "Fitnesstraining mit Geräten (Stunden/Woche)",
                  "name": "aRelevanz.derFussOderZehengelenke.zusaetzlichBeschaeftigeIchMichFreizeit.stundenWoche.fitnesstrainingMitGeraeten",
                  "visible": false,
                  "toggleif": "aRelevanz.derFussOderZehengelenke.zusaetzlichBeschaeftigeIchMichFreizeit.fitnesstrainingMitGeraeten:equals:true",
                  "style": {
                    "className": "col-xs-6"
                  }
                },
                {
                  "type": "checkbox",
                  "name": "aRelevanz.derFussOderZehengelenke.zusaetzlichBeschaeftigeIchMichFreizeit.ichTrainiereRegelmaessigMeineBauchmuskulatur",
                  "value": "Ich trainiere regelmäßig meine Bauchmuskulatur",
                  "label": "Ich trainiere regelmäßig meine Bauchmuskulatur",
                  "style": {
                    "className": "col-xs-12"
                  }
                },
                {
                  "type": "text",
                  "label": "Ich trainiere regelmäßig meine Bauchmuskulatur (Stunden/Woche)",
                  "name": "aRelevanz.derFussOderZehengelenke.zusaetzlichBeschaeftigeIchMichFreizeit.stundenWoche.ichTrainiereRegelmaessigMeineBauchmuskulatur",
                  "visible": false,
                  "toggleif": "aRelevanz.derFussOderZehengelenke.zusaetzlichBeschaeftigeIchMichFreizeit.ichTrainiereRegelmaessigMeineBauchmuskulatur:equals:true",
                  "style": {
                    "className": "col-xs-12"
                  }
                },
                {
                  "type": "checkbox",
                  "name": "aRelevanz.derFussOderZehengelenke.zusaetzlichBeschaeftigeIchMichFreizeit.gartenarbeit",
                  "value": "Gartenarbeit",
                  "label": "Gartenarbeit",
                  "style": {
                    "className": "col-xs-12"
                  }
                },
                {
                  "type": "text",
                  "label": "Gartenarbeit (Stunden/Woche)",
                  "name": "aRelevanz.derFussOderZehengelenke.zusaetzlichBeschaeftigeIchMichFreizeit.stundenWoche.gartenarbeit",
                  "visible": false,
                  "toggleif": "aRelevanz.derFussOderZehengelenke.zusaetzlichBeschaeftigeIchMichFreizeit.gartenarbeit:equals:true",
                  "style": {
                    "className": "col-xs-6"
                  }
                },
                {
                  "type": "checkbox",
                  "name": "aRelevanz.derFussOderZehengelenke.zusaetzlichBeschaeftigeIchMichFreizeit.golfSpielen",
                  "value": "Golf spielen",
                  "label": "Golf spielen",
                  "style": {
                    "className": "col-xs-12"
                  }
                },
                {
                  "type": "text",
                  "label": "Golf spielen (Stunden/Woche)",
                  "name": "aRelevanz.derFussOderZehengelenke.zusaetzlichBeschaeftigeIchMichFreizeit.stundenWoche.golfSpielen",
                  "visible": false,
                  "toggleif": "aRelevanz.derFussOderZehengelenke.zusaetzlichBeschaeftigeIchMichFreizeit.golfSpielen:equals:true",
                  "style": {
                    "className": "col-xs-6"
                  }
                },
                {
                  "type": "checkbox",
                  "name": "aRelevanz.derFussOderZehengelenke.zusaetzlichBeschaeftigeIchMichFreizeit.tennisSpielen",
                  "value": "Tennis spielen",
                  "label": "Tennis spielen",
                  "style": {
                    "className": "col-xs-12"
                  }
                },
                {
                  "type": "text",
                  "label": "Tennis spielen (Stunden/Woche)",
                  "name": "aRelevanz.derFussOderZehengelenke.zusaetzlichBeschaeftigeIchMichFreizeit.stundenWoche.tennisSpielen",
                  "visible": false,
                  "toggleif": "aRelevanz.derFussOderZehengelenke.zusaetzlichBeschaeftigeIchMichFreizeit.tennisSpielen:equals:true",
                  "style": {
                    "className": "col-xs-6"
                  }
                },
                {
                  "type": "checkbox",
                  "name": "aRelevanz.derFussOderZehengelenke.zusaetzlichBeschaeftigeIchMichFreizeit.fussball",
                  "value": "Fußball",
                  "label": "Fußball",
                  "style": {
                    "className": "col-xs-12"
                  }
                },
                {
                  "type": "text",
                  "label": "Fußball (Stunden/Woche)",
                  "name": "aRelevanz.derFussOderZehengelenke.zusaetzlichBeschaeftigeIchMichFreizeit.stundenWoche.fussball",
                  "visible": false,
                  "toggleif": "aRelevanz.derFussOderZehengelenke.zusaetzlichBeschaeftigeIchMichFreizeit.fussball:equals:true",
                  "style": {
                    "className": "col-xs-12"
                  }
                },
                {
                  "type": "checkbox",
                  "name": "aRelevanz.derFussOderZehengelenke.zusaetzlichBeschaeftigeIchMichFreizeit.volleyball",
                  "value": "Volleyball",
                  "label": "Volleyball",
                  "style": {
                    "className": "col-xs-12"
                  }
                },
                {
                  "type": "text",
                  "label": "Volleyball (Stunden/Woche)",
                  "name": "aRelevanz.derFussOderZehengelenke.zusaetzlichBeschaeftigeIchMichFreizeit.stundenWoche.volleyball",
                  "visible": false,
                  "toggleif": "aRelevanz.derFussOderZehengelenke.zusaetzlichBeschaeftigeIchMichFreizeit.volleyball:equals:true",
                  "style": {
                    "className": "col-xs-12"
                  }
                },
                {
                  "type": "checkbox",
                  "name": "aRelevanz.derFussOderZehengelenke.zusaetzlichBeschaeftigeIchMichFreizeit.handball",
                  "value": "Handball",
                  "label": "Handball",
                  "style": {
                    "className": "col-xs-12"
                  }
                },
                {
                  "type": "text",
                  "label": "Handball (Stunden/Woche)",
                  "name": "aRelevanz.derFussOderZehengelenke.zusaetzlichBeschaeftigeIchMichFreizeit.stundenWoche.handball",
                  "visible": false,
                  "toggleif": "aRelevanz.derFussOderZehengelenke.zusaetzlichBeschaeftigeIchMichFreizeit.handball:equals:true",
                  "style": {
                    "className": "col-xs-12"
                  }
                },
                {
                  "type": "checkbox",
                  "name": "aRelevanz.derFussOderZehengelenke.zusaetzlichBeschaeftigeIchMichFreizeit.ballett",
                  "value": "Ballett",
                  "label": "Ballett",
                  "style": {
                    "className": "col-xs-12"
                  }
                },
                {
                  "type": "checkbox",
                  "name": "aRelevanz.derFussOderZehengelenke.zusaetzlichBeschaeftigeIchMichFreizeit.schwimmenUberwiegenKraul",
                  "value": "Schwimmen (überwiegend Kraul)",
                  "label": "Schwimmen (überwiegend Kraul)",
                  "style": {
                    "className": "col-xs-12"
                  }
                },
                {
                  "type": "checkbox",
                  "name": "aRelevanz.derFussOderZehengelenke.zusaetzlichBeschaeftigeIchMichFreizeit.schwimmen8uberwiegendBrustschwimmen",
                  "value": "Schwimmen (überwiegend Brustschwimmen)",
                  "label": "Schwimmen (überwiegend Brustschwimmen)",
                  "style": {
                    "className": "col-xs-12"
                  }
                },
                {
                  "type": "checkbox",
                  "name": "aRelevanz.derFussOderZehengelenke.zusaetzlichBeschaeftigeIchMichFreizeit.strickenHaekeln",
                  "value": "Stricken, Häkeln",
                  "label": "Stricken, Häkeln",
                  "style": {
                    "className": "col-xs-12"
                  }
                },
                {
                  "type": "checkbox",
                  "name": "aRelevanz.derFussOderZehengelenke.zusaetzlichBeschaeftigeIchMichFreizeit.naehen",
                  "value": "Nähen",
                  "label": "Nähen",
                  "style": {
                    "className": "col-xs-12"
                  }
                },
                {
                  "type": "checkbox",
                  "name": "aRelevanz.derFussOderZehengelenke.zusaetzlichBeschaeftigeIchMichFreizeit.handwerken",
                  "value": "Handwerken",
                  "label": "Handwerken",
                  "style": {
                    "className": "col-xs-12"
                  }
                },
                {
                  "type": "checkbox",
                  "name": "aRelevanz.derFussOderZehengelenke.zusaetzlichBeschaeftigeIchMichFreizeit.sonstiges",
                  "value": "sonstiges",
                  "label": "sonstiges:",
                  "style": {
                    "className": "col-xs-12"
                  }
                }
              ]
            },
            {
              "type": "formgroup",
              "label": "",
              "visible": false,
              "toggleif": "aRelevanz.derFussOderZehengelenke.zusaetzlichBeschaeftigeIchMichFreizeit.sonstiges:equals:true",
              "items": [
                {
                  "type": "text",
                  "label": "Sport wie Walking, Laufen, Crosstrainer (Stunden/Woche)",
                  "name": "aRelevanz.derFussOderZehengelenke.sonstiges.stundenWoche.sportWieWalkingLaufenCrosstrainer",
                  "style": {
                    "className": "col-xs-6"
                  }
                },
                {
                  "type": "text",
                  "label": "Fahrrad fahren/Ergometer (Stunden/Woche)",
                  "name": "aRelevanz.derFussOderZehengelenke.sonstiges.stundenWoche.fahrradFahrenErgometer",
                  "style": {
                    "className": "col-xs-6"
                  }
                },
                {
                  "type": "text",
                  "label": "Ich mache regelmäßig Gymnastik/Yoga etc. (Stunden/Woche)",
                  "name": "aRelevanz.derFussOderZehengelenke.sonstiges.stundenWoche.ichMacheRegelmaessigGymnastikYoga",
                  "style": {
                    "className": "col-xs-6"
                  }
                },
                {
                  "type": "text",
                  "label": "Sitzende / Hobbys (Schach, Karten spielen…) (Stunden/Woche)",
                  "name": "aRelevanz.derFussOderZehengelenke.sonstiges.stundenWoche.sitzendeHobbySchachKartenSpielen",
                  "style": {
                    "className": "col-xs-6"
                  }
                },
                {
                  "type": "text",
                  "label": "Fitnesstraining mit Geräten (Stunden/Woche)",
                  "name": "aRelevanz.derFussOderZehengelenke.sonstiges.stundenWoche.fitnesstrainingMitGeraeten",
                  "style": {
                    "className": "col-xs-6"
                  }
                },
                {
                  "type": "text",
                  "label": "Ich trainiere regelmäßig meine Bauchmuskulatur (Stunden/Woche)",
                  "name": "aRelevanz.derFussOderZehengelenke.sonstiges.stundenWoche.trainiereRegelmaessigMeineBauchmuskulatur",
                  "style": {
                    "className": "col-xs-6"
                  }
                },
                {
                  "type": "text",
                  "label": "Gartenarbeit (Stunden/Woche)",
                  "name": "aRelevanz.derFussOderZehengelenke.sonstiges.stundenWoche.gartenarbeit",
                  "style": {
                    "className": "col-xs-6"
                  }
                },
                {
                  "type": "text",
                  "label": "Golf spielen (Stunden/Woche)",
                  "name": "aRelevanz.derFussOderZehengelenke.sonstiges.stundenWoche.golfSpielen",
                  "style": {
                    "className": "col-xs-6"
                  }
                },
                {
                  "type": "text",
                  "label": "Tennis spielen (Stunden/Woche)",
                  "name": "aRelevanz.derFussOderZehengelenke.sonstiges.stundenWoche.tennisSpielen",
                  "style": {
                    "className": "col-xs-6"
                  }
                },
                {
                  "type": "text",
                  "label": "Fußball (Stunden/Woche)",
                  "name": "aRelevanz.derFussOderZehengelenke.sonstiges.stundenWoche.fussball",
                  "style": {
                    "className": "col-xs-6"
                  }
                },
                {
                  "type": "text",
                  "label": "Volleyball (Stunden/Woche)",
                  "name": "aRelevanz.derFussOderZehengelenke.sonstiges.stundenWoche.volleyball",
                  "style": {
                    "className": "col-xs-6"
                  }
                },
                {
                  "type": "text",
                  "label": "Handball (Stunden/Woche)",
                  "name": "aRelevanz.derFussOderZehengelenke.sonstiges.stundenWoche.handball",
                  "style": {
                    "className": "col-xs-6"
                  }
                },
                {
                  "type": "text",
                  "label": "sonstiges: ",
                  "name": "aRelevanz.derFussOderZehengelenke.sonstiges.stundenWoche.sonstiges",
                  "style": {
                    "className": "col-xs-12"
                  }
                }
              ]
            },
            {
              "type": "formgroup",
              "label": "Haltung:",
              "visible": "true",
              "style": {
                "className": "col-md-12 col-xs-12"
              },
              "items": [
                {
                  "type": "checkbox",
                  "name": "aRelevanz.derFussOderZehengelenke.haltung.ichLegeDieBeineGernHochWennIchLeseOderFe",
                  "value": "Ich lege die Beine gern hoch, wenn ich Lese oder fernsehe",
                  "label": "Ich lege die Beine gern hoch, wenn ich Lese oder fernsehe",
                  "style": {
                    "className": "col-xs-12"
                  }
                },
                {
                  "type": "checkbox",
                  "name": "aRelevanz.derFussOderZehengelenke.haltung.haltung.ichZieheDieFusseWaehrendDesSitzensGernUn",
                  "value": "Ich ziehe die Füße während des Sitzens gern unter den Stuhl",
                  "label": "Ich ziehe die Füße während des Sitzens gern unter den Stuhl",
                  "style": {
                    "className": "col-xs-12"
                  }
                },
                {
                  "type": "checkbox",
                  "name": "aRelevanz.derFussOderZehengelenke.haltung.ichSchlageDieBeineGernWaehrendDesSitzens",
                  "value": "Ich schlage die Beine gern während des Sitzens übereinander",
                  "label": "Ich schlage die Beine gern während des Sitzens übereinander",
                  "style": {
                    "className": "col-xs-12"
                  }
                },
                {
                  "type": "checkbox",
                  "name": "aRelevanz.derFussOderZehengelenke.haltung.ichStreckeDieBeineGernWaehrendDesSitzens",
                  "value": "Ich strecke die Beine gern während des Sitzens aus",
                  "label": "Ich strecke die Beine gern während des Sitzens aus",
                  "style": {
                    "className": "col-xs-12"
                  }
                },
                {
                  "type": "checkbox",
                  "name": "aRelevanz.derFussOderZehengelenke.haltung.ichMussMichWaehrendMeinerArbeitOftNachEi",
                  "value": "Ich muss mich während meiner Arbeit oft nach einer Seite drehen (Monitor steht auf einer Seite, in der Küche, beim Bügeln etc.)",
                  "label": "Ich muss mich während meiner Arbeit oft nach einer Seite drehen (Monitor steht auf einer Seite, in der Küche, beim Bügeln etc.)",
                  "style": {
                    "className": "col-xs-12"
                  }
                },
                {
                  "type": "checkbox",
                  "name": "aRelevanz.derFussOderZehengelenke.haltung.ichSteheDurchMeinenBerufOftAufDerLeiter",
                  "value": "Ich stehe durch meinen Beruf oft auf der Leiter",
                  "label": "Ich stehe durch meinen Beruf oft auf der Leiter",
                  "style": {
                    "className": "col-xs-12"
                  }
                },
                {
                  "type": "checkbox",
                  "name": "aRelevanz.derFussOderZehengelenke.haltung.ichSteheDurchMeinenBerufOftAufDerLeiterUberKopf",
                  "value": "Ich stehe durch meinen Beruf oft auf der Leiter und arbeite viel über Kopf",
                  "label": "Ich stehe durch meinen Beruf oft auf der Leiter und arbeite viel über Kopf",
                  "style": {
                    "className": "col-xs-12"
                  }
                },
                {
                  "type": "checkbox",
                  "name": "aRelevanz.derFussOderZehengelenke.haltung.ichSchlafeUberwiegendAufDerSeite",
                  "value": "Ich schlafe überwiegend auf der Seite",
                  "label": "Ich schlafe überwiegend auf der Seite",
                  "style": {
                    "className": "col-xs-12"
                  }
                },
                {
                  "type": "checkbox",
                  "name": "aRelevanz.derFussOderZehengelenke.haltung.ichSchlafeUberwiegenAufDemBauch",
                  "value": "Ich schlafe überwiegend auf dem Bauch",
                  "label": "Ich schlafe überwiegend auf dem Bauch",
                  "style": {
                    "className": "col-xs-12"
                  }
                },
                {
                  "type": "checkbox",
                  "name": "aRelevanz.derFussOderZehengelenke.haltung.ichSchlafeUberwiegenAufDemBauchUndEinBein",
                  "value": "Ich schlafe überwiegend auf dem Bauch und ein Bein ist angezogen",
                  "label": "Ich schlafe überwiegend auf dem Bauch und ein Bein ist angezogen",
                  "style": {
                    "className": "col-xs-12"
                  }
                },
                {
                  "type": "checkbox",
                  "name": "aRelevanz.derFussOderZehengelenke.haltung.ichSchlafeUberwiegenAufDemRucken",
                  "value": "Ich schlafe überwiegend auf dem Rücken",
                  "label": "Ich schlafe überwiegend auf dem Rücken",
                  "style": {
                    "className": "col-xs-12"
                  }
                },
                {
                  "type": "checkbox",
                  "name": "aRelevanz.derFussOderZehengelenke.haltung.wennIchAufDemRuckenLiegestelleIchOftEinBein",
                  "value": "Wenn ich auf dem Rücken liege,stelle ich oft ein Bein an und lasse esn nach außen fallen",
                  "label": "Wenn ich auf dem Rücken liege,stelle ich oft ein Bein an und lasse esn nach außen fallen",
                  "style": {
                    "className": "col-xs-12"
                  }
                },
                {
                  "type": "checkbox",
                  "name": "aRelevanz.derFussOderZehengelenke.haltung.wennIchSitzeSitzeIchOftImSchneidersitzOder",
                  "value": "Wenn ich sitze, sitze ich oft im Schneidersitz oder auf einem Fuß",
                  "label": "Wenn ich sitze, sitze ich oft im Schneidersitz oder auf einem Fuß",
                  "style": {
                    "className": "col-xs-12"
                  }
                },
                {
                  "type": "checkbox",
                  "name": "aRelevanz.derFussOderZehengelenke.haltung.ichKlemmeBeimTelefonierenGernDenHorerEin",
                  "value": "Ich klemme beim Telefonieren gern den Hörer ein",
                  "label": "Ich klemme beim Telefonieren gern den Hörer ein",
                  "style": {
                    "className": "col-xs-12"
                  }
                },
                {
                  "type": "checkbox",
                  "name": "aRelevanz.derFussOderZehengelenke.haltung.ichTrageMeineHandtascheOftAufDerGleichen",
                  "value": "Ich trage meine Handtasche oft auf der gleichen Seite:",
                  "label": "Ich trage meine Handtasche oft auf der gleichen Seite:",
                  "style": {
                    "className": "col-xs-12"
                  }
                },
                {
                  "type": "checkbox",
                  "name": "aRelevanz.derFussOderZehengelenke.haltung.ichArbeiteVielMitDenHaenden",
                  "value": "Ich arbeite viel mit den Händen",
                  "label": "Ich arbeite viel mit den Händen",
                  "style": {
                    "className": "col-xs-12"
                  }
                },
                {
                  "type": "checkbox",
                  "name": "aRelevanz.derFussOderZehengelenke.haltung.ichSitzeVielAmPC",
                  "value": "Ich sitze viel am PC",
                  "label": "Ich sitze viel am PC",
                  "style": {
                    "className": "col-xs-12"
                  }
                },
                {
                  "type": "checkbox",
                  "name": "aRelevanz.derFussOderZehengelenke.haltung.ichKnirscheMitDenZaehnenOderPresseAufDie",
                  "value": "ich knirsche mit den Zähnen oder presse auf die Zähne",
                  "label": "ich knirsche mit den Zähnen oder presse auf die Zähne",
                  "style": {
                    "className": "col-xs-12"
                  }
                },
                {
                  "type": "checkbox",
                  "name": "aRelevanz.derFussOderZehengelenke.haltung.ichHabeVomZahnarztEineAufbissschineVerordnetTrageDiese",
                  "value": "ich habe vom Zahnarzt eine Aufbißschine verordnet bekommen und trage diese nur selten",
                  "label": "ich habe vom Zahnarzt eine Aufbißschine verordnet bekommen und trage diese nur selten",
                  "style": {
                    "className": "col-xs-12"
                  }
                },
                {
                  "type": "checkbox",
                  "name": "aRelevanz.derFussOderZehengelenke.haltung.ichHabeVomZahnarztEineAufbissschineVerordnetTrageImmer",
                  "value": "ich habe vom Zahnarzt eine Aufbißschine verordnet bekommen und trage immer nachts",
                  "label": "ich habe vom Zahnarzt eine Aufbißschine verordnet bekommen und trage immer nachts",
                  "style": {
                    "className": "col-xs-12"
                  }
                },
                {
                  "type": "checkbox",
                  "name": "aRelevanz.derFussOderZehengelenke.haltung.wennIchMichNachVornBeugeGestreckteKnieKomme",
                  "value": "Wenn ich mich nach vorn beuge (gestreckte Knie) komme ich mit den Fingern nicht auf den Boden",
                  "label": "Wenn ich mich nach vorn beuge (gestreckte Knie) komme ich mit den Fingern nicht auf den Boden",
                  "style": {
                    "className": "col-xs-12"
                  }
                },
                {
                  "type": "checkbox",
                  "name": "aRelevanz.derFussOderZehengelenke.haltung.ichKannNichtImSchneidersitzSitzenDaIchNicht",
                  "value": "Ich kann nicht im Schneidersitz sitzen, da ich nicht beweglich genug bin oder Schmerzen habe",
                  "label": "Ich kann nicht im Schneidersitz sitzen, da ich nicht beweglich genug bin oder Schmerzen habe",
                  "style": {
                    "className": "col-xs-12"
                  }
                },
                {
                  "type": "checkbox",
                  "name": "aRelevanz.derFussOderZehengelenke.haltung.ichMussInMeinemBerufSchwerHeben",
                  "value": "Ich muss in meinem Beruf schwer heben",
                  "label": "Ich muss in meinem Beruf schwer heben",
                  "style": {
                    "className": "col-xs-12"
                  }
                },
                {
                  "type": "checkbox",
                  "name": "aRelevanz.derFussOderZehengelenke.haltung.ichMussMichInMeinemBerufOftNachEinerSeit",
                  "value": "Ich muss mich in meinem Beruf oft nach einer Seite  drehen (Fließband Monitor steht auf einer Seite, …)",
                  "label": "Ich muss mich in meinem Beruf oft nach einer Seite  drehen (Fließband Monitor steht auf einer Seite, …)",
                  "style": {
                    "className": "col-xs-12"
                  }
                },
                {
                  "type": "checkbox",
                  "name": "aRelevanz.derFussOderZehengelenke.haltung.ichMussInMeinemBerufStehenUndBinSehrViel",
                  "value": "ich muss in meinem Beruf stehen und bin sehr viel nach vorn gebeut",
                  "label": "ich muss in meinem Beruf stehen und bin sehr viel nach vorn gebeut",
                  "style": {
                    "className": "col-xs-12"
                  }
                },
                {
                  "type": "checkbox",
                  "name": "aRelevanz.derFussOderZehengelenke.haltung.ichSteheOftMehrAufDenRechtenOderLinkenBe",
                  "value": "Ich stehe oft mehr auf den rechten oder linken Bein",
                  "label": "Ich stehe oft mehr auf den rechten oder linken Bein",
                  "style": {
                    "className": "col-xs-12"
                  }
                },
                {
                  "type": "text",
                  "name": "aRelevanz.derFussOderZehengelenke.haltungsUndBewegungsanalyse.seiteRechtsLinks",
                  "label": "Seite (rechts/links)",
                  "style": {
                    "className": "col-xs-12"
                  }
                }
              ]
            }
          ]
        },
        {
          "type": "button",
          "action": "submit",
          "name": "submitBtn",
          "onclick": "saveOrUpdate",
          "label": "{{lang-bind:save}}"
        },
        {
          "type": "button",
          "action": "dismiss",
          "name": "resetBtn",
          "onclick": "cancel()",
          "label": "{{lang-bind:dismiss}}"
        },
        {
          "type": "button",
          "action": "reset",
          "name": "resetBtn",
          "onclick": "cancel",
          "label": "{{lang-bind:clear}}"
        }
      ]
    }
  ]
}
