{
  "title": "A-Relevanz / Ledenwirbelsäule (Bandscheibenvorfälle, Spinalkanalstenose etc. - mit und ohne Ausstrahlung in das Gesäß oder Beine)",
  "class": "derHalswirbelsaeuleNacken",
  "items": [
    {
      "type": "form",
      "title": "A-Relevanz <i class='fa fa-arrow-right'></i> der Halswirbelsäule bzw. Nacken (auch Kopfschmerzen oder Migräne)",
      "name": "derHalswirbelsaeuleNackenForm",
      "dbtable": "A_RELEVANZ_derHalswirbelsaeuleNacken",
      "collapsed": "false",
      "showid": "false",
      "class": "derHalswirbelsaeuleNacken",
      "style": {
        "className": "col-md-12 col-xs-12"
      },
      "items": [
        {
          "type": "hidden",
          "name": "id"
        },
        {
          "type": "hidden",
          "name": "patientId"
        },
        {
          "type": "html",
          "html": "<h4>Fragen zur den Schmerzen im unteren Rücken bzw. Lendenwirbelsäule</h4>"
        },
        {
          "type": "text",
          "name": "aRelevanz.derHalswirbelsaeuleNacken.diangoseFestgestellt",
          "label": "Bei mir wurde folgende Diangose festgestellt",
          "style": {
            "className": "col-md-6 col-xs-12"
          }
        },
        {
          "type": "text",
          "name": "aRelevanz.derHalswirbelsaeuleNacken.seitWannHabenSieDieSchmerzen",
          "label": "Seit wann haben Sie die Schmerzen",
          "style": {
            "className": "col-md-6 col-xs-12"
          }
        },
        {
          "type": "text",
          "name": "aRelevanz.derHalswirbelsaeuleNacken.beschreibenSieBitteIhrBeschwerdebild",
          "label": "Beschreiben sie bitte Ihr Beschwerdebild",
          "style": {
            "className": "col-md-6 col-xs-12"
          }
        },
        {
          "type": "text",
          "name": "aRelevanz.derHalswirbelsaeuleNacken.DiagnosenDesArztesHochladen",
          "label": "Hier können sie Diagnosen des Arztes hochladen (File Upload*)",
          "style": {
            "className": "col-md-6 col-xs-12"
          }
        },
        {
          "type": "html",
          "html": "<div id='shmerzenFileUpload1' class='col-xs-4'></div>"
        },
        {
          "type": "formgroup",
          "label": "<h4>Allgemeine Fragen zur Konstitution</h4>",
          "visible": "true",
          "style": {
            "className": "col-md-12 col-xs-12"
          },
          "items": [
            {
              "type": "checkbox",
              "name": "aRelevanz.derHalswirbelsaeuleNacken.meineNackenTretenAkutHeftigUndOftPlotzli",
              "value": "Meine Nacken treten akut, heftig und oft plötzlich auf",
              "label": "Meine Nacken treten akut, heftig und oft plötzlich auf",
              "style": {
                "className": "col-xs-12"
              }
            },
            {
              "type": "checkbox",
              "name": "aRelevanz.derHalswirbelsaeuleNacken.meineNackenschmerzenSindStarkUndMeistens",
              "value": "Meine Nackenschmerzen sind stark und meistens einseitig",
              "label": "Meine Nackenschmerzen sind stark und meistens einseitig",
              "style": {
                "className": "col-xs-12"
              }
            },
            {
              "type": "checkbox",
              "name": "aRelevanz.derHalswirbelsaeuleNacken.meineNackenmscherzenStrahlenInDenHinterk",
              "value": "Meine Nackenmscherzen strahlen in den Hinterkopf, Kopf, Brustwirbelsäule, schulter oder Arm",
              "label": "Meine Nackenmscherzen strahlen in den Hinterkopf, Kopf, Brustwirbelsäule, schulter oder Arm",
              "style": {
                "className": "col-xs-12"
              }
            },
            {
              "type": "checkbox",
              "name": "aRelevanz.derHalswirbelsaeuleNacken.schmerzenVerstaerkenSichBeiBeruhrungOder",
              "value": "Schmerzen verstärken sich bei Berührung oder Massage",
              "label": "Schmerzen verstärken sich bei Berührung oder Massage",
              "style": {
                "className": "col-xs-12"
              }
            },
            {
              "type": "checkbox",
              "name": "aRelevanz.derHalswirbelsaeuleNacken.ichHabeEineKaeltegefuhlImNackenOderDenAr",
              "value": "Ich habe eine Kältegefühl im Nacken oder den Armen",
              "label": "Ich habe eine Kältegefühl im Nacken oder den Armen",
              "style": {
                "className": "col-xs-12"
              }
            },
            {
              "type": "checkbox",
              "name": "aRelevanz.derHalswirbelsaeuleNacken.meineNackenmuskulaturIstVerspannt",
              "value": "Meine Nackenmuskulatur ist verspannt",
              "label": "Meine Nackenmuskulatur ist verspannt",
              "style": {
                "className": "col-xs-12"
              }
            },
            {
              "type": "checkbox",
              "name": "aRelevanz.derHalswirbelsaeuleNacken.ichHabeEineAbneigungGegenKaelte",
              "value": "Ich habe eine Abneigung gegen Kälte",
              "label": "Ich habe eine Abneigung gegen Kälte",
              "style": {
                "className": "col-xs-12"
              }
            },
            {
              "type": "checkbox",
              "name": "aRelevanz.derHalswirbelsaeuleNacken.meineSymptomeVerbessernSichDurchWaerme",
              "value": "Meine Symptome verbessern sich durch Wärme",
              "label": "Meine Symptome verbessern sich durch Wärme",
              "style": {
                "className": "col-xs-12"
              }
            },
            {
              "type": "checkbox",
              "name": "aRelevanz.derHalswirbelsaeuleNacken.ichHabeEinenWeisseZungenbelag",
              "value": "Ich habe einen weiße Zungenbelag",
              "label": "Ich habe einen weiße Zungenbelag",
              "style": {
                "className": "col-xs-12"
              }
            },
            {
              "type": "checkbox",
              "name": "aRelevanz.derHalswirbelsaeuleNacken.ichHabeDasGefuhlDassMeinNackenUndSchulte",
              "value": "Ich habe das Gefühl, dass mein Nacken und Schulter angeschwollen sind",
              "label": "Ich habe das Gefühl, dass mein Nacken und Schulter angeschwollen sind",
              "style": {
                "className": "col-xs-12"
              }
            },
            {
              "type": "checkbox",
              "name": "aRelevanz.derHalswirbelsaeuleNacken.ichHabeEineTaubheitsgefuhlImNackenOderDe",
              "value": "Ich habe eine Taubheitsgefühl im Nacken oder den Armen",
              "label": "Ich habe eine Taubheitsgefühl im Nacken oder den Armen",
              "style": {
                "className": "col-xs-12"
              }
            },
            {
              "type": "checkbox",
              "name": "aRelevanz.derHalswirbelsaeuleNacken.ichHabeEineAbneigungGegenNaesse",
              "value": "Ich habe eine Abneigung gegen Nässe",
              "label": "Ich habe eine Abneigung gegen Nässe",
              "style": {
                "className": "col-xs-12"
              }
            },
            {
              "type": "checkbox",
              "name": "aRelevanz.derHalswirbelsaeuleNacken.ichFuhleMichBeiTrockenerWaermeBesser",
              "value": "Ich fühle mich bei trockener Wärme besser",
              "label": "Ich fühle mich bei trockener Wärme besser",
              "style": {
                "className": "col-xs-12"
              }
            },
            {
              "type": "checkbox",
              "name": "aRelevanz.derHalswirbelsaeuleNacken.meineZungeIstDickBelegt",
              "value": "Meine Zunge ist dick belegt",
              "label": "Meine Zunge ist dick belegt",
              "style": {
                "className": "col-xs-12"
              }
            },
            {
              "type": "checkbox",
              "name": "aRelevanz.derHalswirbelsaeuleNacken.ichHabeEineRotungVonHautUndGewebe",
              "value": "Ich habe eine Rötung von Haut und Gewebe",
              "label": "Ich habe eine Rötung von Haut und Gewebe",
              "style": {
                "className": "col-xs-12"
              }
            },
            {
              "type": "checkbox",
              "name": "aRelevanz.derHalswirbelsaeuleNacken.ichHabeEinHitzegefuhlImNackenUndOderDenA",
              "value": "Ich habe ein Hitzegefühl im Nacken und oder den Armen",
              "label": "Ich habe ein Hitzegefühl im Nacken und oder den Armen",
              "style": {
                "className": "col-xs-12"
              }
            },
            {
              "type": "checkbox",
              "name": "aRelevanz.derHalswirbelsaeuleNacken.ichHabeEineAbneigungGegenHitze",
              "value": "Ich habe eine Abneigung gegen Hitze",
              "label": "Ich habe eine Abneigung gegen Hitze",
              "style": {
                "className": "col-xs-12"
              }
            },
            {
              "type": "checkbox",
              "name": "aRelevanz.derHalswirbelsaeuleNacken.meineSymptomeVerbessernSichBeiKaelte",
              "value": "Meine Symptome verbessern sich bei Kälte",
              "label": "Meine Symptome verbessern sich bei Kälte",
              "style": {
                "className": "col-xs-12"
              }
            },
            {
              "type": "checkbox",
              "name": "aRelevanz.derHalswirbelsaeuleNacken.ichHabeImNackenEinenBrennschmerzUndOderE",
              "value": "Ich habe im Nacken einen Brennschmerz und oder eine Rötung",
              "label": "Ich habe im Nacken einen Brennschmerz und oder eine Rötung",
              "style": {
                "className": "col-xs-12"
              }
            },
            {
              "type": "checkbox",
              "name": "aRelevanz.derHalswirbelsaeuleNacken.ichHabeEinenGelblichenDickenZungenbelag",
              "value": "Ich habe einen Gelblichen dicken Zungenbelag",
              "label": "Ich habe einen Gelblichen dicken Zungenbelag",
              "style": {
                "className": "col-xs-12"
              }
            },
            {
              "type": "checkbox",
              "name": "aRelevanz.derHalswirbelsaeuleNacken.ichHatteEinePrellungVerstauchungOderEine",
              "value": "Ich hatte eine Prellung, Verstauchung oder eine Verdrehung des Nackens",
              "label": "Ich hatte eine Prellung, Verstauchung oder eine Verdrehung des Nackens",
              "style": {
                "className": "col-xs-12"
              }
            },
            {
              "type": "checkbox",
              "name": "aRelevanz.derHalswirbelsaeuleNacken.meineNackenschmerzenSindZiehend",
              "value": "Meine Nackenschmerzen sind ziehend",
              "label": "Meine Nackenschmerzen sind ziehend",
              "style": {
                "className": "col-xs-12"
              }
            },
            {
              "type": "checkbox",
              "name": "aRelevanz.derHalswirbelsaeuleNacken.meineNackenschmerzenSindPunktuell",
              "value": "Meine Nackenschmerzen sind punktuell",
              "label": "Meine Nackenschmerzen sind punktuell",
              "style": {
                "className": "col-xs-12"
              }
            },
            {
              "type": "checkbox",
              "name": "aRelevanz.derHalswirbelsaeuleNacken.ichHabeEineBewegungseinschraenkungBeimKo",
              "value": "Ich habe eine Bewegungseinschränkung beim Kopfdrehen etc.",
              "label": "Ich habe eine Bewegungseinschränkung beim Kopfdrehen etc.",
              "style": {
                "className": "col-xs-12"
              }
            },
            {
              "type": "checkbox",
              "name": "aRelevanz.derHalswirbelsaeuleNacken.meineSchmerzenVerstaerkenSichNachts",
              "value": "Meine Schmerzen verstärken sich nachts",
              "label": "Meine Schmerzen verstärken sich nachts",
              "style": {
                "className": "col-xs-12"
              }
            },
            {
              "type": "checkbox",
              "name": "aRelevanz.derHalswirbelsaeuleNacken.ichHabeChronischeNackenschmerzenAlsoScho",
              "value": "Ich habe chronische Nackenschmerzen, also schon lange damit zu tun",
              "label": "Ich habe chronische Nackenschmerzen, also schon lange damit zu tun",
              "style": {
                "className": "col-xs-12"
              }
            },
            {
              "type": "checkbox",
              "name": "aRelevanz.derHalswirbelsaeuleNacken.ichNeigeZurMentalenUndMuskulaereAnspannu",
              "value": "Ich neige zur mentalen und muskuläre anspannung",
              "label": "Ich neige zur mentalen und muskuläre anspannung",
              "style": {
                "className": "col-xs-12"
              }
            },
            {
              "type": "checkbox",
              "name": "aRelevanz.derHalswirbelsaeuleNacken.meineNackenOderKopfschmerzenSetzenBeiStr",
              "value": "Meine Nacken oder Kopfschmerzen setzen bei Stress oder Problemen ein",
              "label": "Meine Nacken oder Kopfschmerzen setzen bei Stress oder Problemen ein",
              "style": {
                "className": "col-xs-12"
              }
            },
            {
              "type": "checkbox",
              "name": "aRelevanz.derHalswirbelsaeuleNacken.ichHabeMitSchwindelKopfschmerzenMigraene",
              "value": "Ich habe mit Schwindel, Kopfschmerzen, Migräne oder Ohrengeräusche zu tun",
              "label": "Ich habe mit Schwindel, Kopfschmerzen, Migräne oder Ohrengeräusche zu tun",
              "style": {
                "className": "col-xs-12"
              }
            },
            {
              "type": "checkbox",
              "name": "aRelevanz.derHalswirbelsaeuleNacken.meinNackenschmerzZiehtWnadertUndIstEinse",
              "value": "Mein Nackenschmerz zieht, wnadert und ist einseitig",
              "label": "Mein Nackenschmerz zieht, wnadert und ist einseitig",
              "style": {
                "className": "col-xs-12"
              }
            }
          ]
        },
        {
          "type": "formgroup",
          "label": "<h4>Spezifische Fragen zur den Schmerzen</h4>",
          "visible": "true",
          "style": {
            "className": "col-md-12 col-xs-12"
          },
          "items": [
            {
              "type": "html",
              "html": "bitte geben sie zu jeder zutrffenden Frage die Schmerzstärke (0-10) in das vorgesehene Feld ein (0= kein Schmerz – 10 ist Maximalschmerz) <br><br>"
            }
          ]
        },
        {
          "type": "formgroup",
          "label": "",
          "visible": "true",
          "style": {
            "className": "col-md-6 col-xs-12"
          },
          "items": [
            {
              "type": "select",
              "name": "aRelevanz.derHalswirbelsaeuleNacken.spezifischeFragen.ichHatteVorJahrenOderInLetzterZeitEinSchleudertraum",
              "label": "Ich hatte vor Jahren oder in letzter Zeit ein Schleudertraum durch einen Autoauffahrunfall und dadruch Schmerzen",
              "dbtable": "SCHMERZ",
              "storetype": "Number",
              "style": {
                "className": "col-md-12 col-xs-12"
              },
              "datamap": {
                "id": "id",
                "text": "value"
              }
            },
            {
              "type": "select",
              "name": "aRelevanz.derHalswirbelsaeuleNacken.spezifischeFragen.dieNackenschmerzenTretenMeistensWaehrendSesSitzensAuf",
              "label": "Die Nackenschmerzen treten meistens während des sitzens auf",
              "dbtable": "SCHMERZ",
              "storetype": "Number",
              "style": {
                "className": "col-md-12 col-xs-12"
              },
              "datamap": {
                "id": "id",
                "text": "value"
              }
            },
            {
              "type": "select",
              "name": "aRelevanz.derHalswirbelsaeuleNacken.spezifischeFragen.nackenschmerzenWennIchDieHWSStreckeBzw",
              "label": "Ich habe Nackenschmerzen, wenn ich die HWS strecke bzw. zur Decke schaue",
              "dbtable": "SCHMERZ",
              "storetype": "Number",
              "style": {
                "className": "col-md-12 col-xs-12"
              },
              "datamap": {
                "id": "id",
                "text": "value"
              }
            },
            {
              "type": "select",
              "name": "aRelevanz.derHalswirbelsaeuleNacken.spezifischeFragen.nackenschmerzenWennIchDenKopfNachLinksOderRechtsDrehe",
              "label": "Ich habe Nackenschmerzen, wenn ich den Kopf nach links oder rechts drehe",
              "dbtable": "SCHMERZ",
              "storetype": "Number",
              "style": {
                "className": "col-md-12 col-xs-12"
              },
              "datamap": {
                "id": "id",
                "text": "value"
              }
            },
            {
              "type": "select",
              "name": "aRelevanz.derHalswirbelsaeuleNacken.spezifischeFragen.nackenschmerzenWennIchDasKnieAufDieBrustNehme",
              "label": "Ich habe Nackenschmerzen, wenn ich das Knie auf die Brust nehme",
              "dbtable": "SCHMERZ",
              "storetype": "Number",
              "style": {
                "className": "col-md-12 col-xs-12"
              },
              "datamap": {
                "id": "id",
                "text": "value"
              }
            },
            {
              "type": "select",
              "name": "aRelevanz.derHalswirbelsaeuleNacken.spezifischeFragen.wennIchDenLinkeOderRechtenArmSeitlichAnhebe",
              "label": "Ich habe Schmerzen, wenn ich den linke oder rechten Arm seitlich anhebe",
              "dbtable": "SCHMERZ",
              "storetype": "Number",
              "style": {
                "className": "col-md-12 col-xs-12"
              },
              "datamap": {
                "id": "id",
                "text": "value"
              }
            },
            {
              "type": "select",
              "name": "aRelevanz.derHalswirbelsaeuleNacken.spezifischeFragen.wennIchDenArmNachVorneAnhebe",
              "label": "Ich habe Schmerzen, wenn ich den Arm nach vorne anhebe",
              "dbtable": "SCHMERZ",
              "storetype": "Number",
              "style": {
                "className": "col-md-12 col-xs-12"
              },
              "datamap": {
                "id": "id",
                "text": "value"
              }
            }
          ]
        },
        {
          "type": "formgroup",
          "label": "",
          "visible": "true",
          "style": {
            "className": "col-md-6 col-xs-12"
          },
          "items": [
            {
              "type": "select",
              "name": "aRelevanz.derHalswirbelsaeuleNacken.spezifischeFragen.nackenschmerzenWennIchSehrVielMitDenArmenArbeite",
              "label": "Ich bekomme Nackenschmerzen, wenn ich sehr viel mit den Armen arbeite (Fenster putzen etc.)",
              "dbtable": "SCHMERZ",
              "storetype": "Number",
              "style": {
                "className": "col-md-12 col-xs-12"
              },
              "datamap": {
                "id": "id",
                "text": "value"
              }
            },
            {
              "type": "select",
              "name": "aRelevanz.derHalswirbelsaeuleNacken.spezifischeFragen.ichBekommeNackenschmerzenWennIchVielAmPCSitze",
              "label": "Ich bekomme Nackenschmerzen, wenn ich viel am PC sitze",
              "dbtable": "SCHMERZ",
              "storetype": "Number",
              "style": {
                "className": "col-md-12 col-xs-12"
              },
              "datamap": {
                "id": "id",
                "text": "value"
              }
            },
            {
              "type": "select",
              "name": "aRelevanz.derHalswirbelsaeuleNacken.spezifischeFragen.ichBekommeNackenscherzenWennIchStricke",
              "label": "Ich bekomme Nackenscherzen, wenn ich Stricke, nähe etc.",
              "dbtable": "SCHMERZ",
              "storetype": "Number",
              "style": {
                "className": "col-md-12 col-xs-12"
              },
              "datamap": {
                "id": "id",
                "text": "value"
              }
            },
            {
              "type": "select",
              "name": "aRelevanz.derHalswirbelsaeuleNacken.spezifischeFragen.ichBekommeNackenschmerzenWennIchVielStehenMuss",
              "label": "Ich bekomme Nackenschmerzen, wenn ich viel stehen muss",
              "dbtable": "SCHMERZ",
              "storetype": "Number",
              "style": {
                "className": "col-md-12 col-xs-12"
              },
              "datamap": {
                "id": "id",
                "text": "value"
              }
            },
            {
              "type": "select",
              "name": "aRelevanz.derHalswirbelsaeuleNacken.spezifischeFragen.nackenOderKopfschmerzenWennIchNachtsImBettAufDerSeite",
              "label": "Ich bekomme Nacken- oder Kopfschmerzen, wenn ich nachts im Bett auf der Seite liege",
              "dbtable": "SCHMERZ",
              "storetype": "Number",
              "style": {
                "className": "col-md-12 col-xs-12"
              },
              "datamap": {
                "id": "id",
                "text": "value"
              }
            },
            {
              "type": "select",
              "name": "aRelevanz.derHalswirbelsaeuleNacken.spezifischeFragen.nackenOderKopfschmerzenWennIchNachtsAufDemRucken",
              "label": "Ich bekomme Nacken- oder Kopfschmerzen, wenn ich nachts auf dem Rücken liege",
              "dbtable": "SCHMERZ",
              "storetype": "Number",
              "style": {
                "className": "col-md-12 col-xs-12"
              },
              "datamap": {
                "id": "id",
                "text": "value"
              }
            }
          ]
        },
        {
          "type": "formgroup",
          "label": "<h4>Haltungs – und Bewegungsanalyse</h4>",
          "visible": "true",
          "style": {
            "className": "col-md-12 col-xs-12"
          },
          "items": [
            {
              "type": "textarea",
              "name": "aRelevanz.derHalswirbelsaeuleNacken.haltungsUndBewegungsanalyse.wasMachenSieBeruflich",
              "label": "Bewegungs-und Haltungsanamnese (ist sehr wichtig – nehmen sie sich Zeit) <br> Was machen sie beruflich?",
              "style": {
                "className": "col-md-12 col-xs-12"
              }
            },
            {
              "type": "textarea",
              "name": "aRelevanz.derHalswirbelsaeuleNacken.haltungsUndBewegungsanalyse.beschreibenInKurzenSatzen",
              "label": "Bitte genau beschreiben in kurzen Sätzen, welche Bewegungsabläufe Ihnen Ihre Beruf oder Tätigkeit abverlangt: <br> (z.B. Ich stehe überwiegend und muss mich sehr oft nach der linken Seite bücken etc.)",
              "style": {
                "className": "col-md-12 col-xs-12"
              }
            },
            {
              "type": "textarea",
              "name": "aRelevanz.derHalswirbelsaeuleNacken.haltungsUndBewegungsanalyse.ruhestandUndWarFruherImFolgendenBeruf",
              "label": "Ich bin im Ruhestand und war früher im folgenden Beruf(en) tätig",
              "style": {
                "className": "col-md-12 col-xs-12"
              }
            }
          ]
        },
        {
          "type": "formgroup",
          "label": "<h4>Ich befinde mich oft in folgenden Haltungen und Bewegungsmuster</h4>",
          "visible": "true",
          "style": {
            "className": "col-md-12 col-xs-12"
          },
          "items": [
            {
              "type": "html",
              "html": "Analysieren des Tagesablaufes bezogen auf Haltung und Bewegung:"
            },
            {
              "type": "formgroup",
              "label": "Ich habe einen sitzenden Beruf und verbringe damit",
              "visible": "true",
              "style": {
                "className": "col-md-12 col-xs-12"
              },
              "items": [
                {
                  "type": "text",
                  "label": "Sitzen",
                  "name": "aRelevanz.derHalswirbelsaeuleNacken.haltungenUndBewegungsmuster.sitzendenBerufUndVerbringeDamit.sitzen",
                  "style": {
                    "className": "col-sm-5 col-xs-10"
                  }
                },
                {
                  "type": "text",
                  "label": "stehen/laufen",
                  "name": "aRelevanz.derHalswirbelsaeuleNacken.haltungenUndBewegungsmuster.sitzendenBerufUndVerbringeDamit.stehenLaufen",
                  "style": {
                    "className": "col-sm-5 col-xs-10"
                  }
                },
                {
                  "type": "html",
                  "html": "<div class='col-sm-2 col-xs-2'>Stunden/Tag</div>"
                }
              ]
            },
            {
              "type": "formgroup",
              "label": "Ich laufe und stehe überwiegend im Beruf",
              "visible": "true",
              "style": {
                "className": "col-md-12 col-xs-12"
              },
              "items": [
                {
                  "type": "text",
                  "label": "Sitzen",
                  "name": "aRelevanz.derHalswirbelsaeuleNacken.haltungenUndBewegungsmuster.laufeUndSteheUberwiegend.sitzen",
                  "style": {
                    "className": "col-sm-5 col-xs-10"
                  }
                },
                {
                  "type": "text",
                  "label": "stehen/laufen",
                  "name": "aRelevanz.derHalswirbelsaeuleNacken.haltungenUndBewegungsmuster.laufeUndSteheUberwiegend.stehenLaufen",
                  "style": {
                    "className": "col-sm-5 col-xs-10"
                  }
                },
                {
                  "type": "html",
                  "html": "<div class='col-sm-2 col-xs-2'>Stunden/Tag</div>"
                }
              ]
            },
            {
              "type": "formgroup",
              "label": "Ich stehe überwiegend und bin oft in einer vorgebeugten Haltung (Gärnter, Reinigung)",
              "visible": "true",
              "style": {
                "className": "col-md-12 col-xs-12"
              },
              "items": [
                {
                  "type": "text",
                  "label": "Sitzen",
                  "name": "aRelevanz.derHalswirbelsaeuleNacken.haltungenUndBewegungsmuster.steheUberwiegenUndVorgebeugtenHaltung.sitzen",
                  "style": {
                    "className": "col-sm-5 col-xs-10"
                  }
                },
                {
                  "type": "text",
                  "label": "stehen/laufen",
                  "name": "aRelevanz.derHalswirbelsaeuleNacken.haltungenUndBewegungsmuster.steheUberwiegenUndVorgebeugtenHaltung.stehenLaufen",
                  "style": {
                    "className": "col-sm-5 col-xs-10"
                  }
                },
                {
                  "type": "html",
                  "html": "<div class='col-sm-2 col-xs-2'>Stunden/Tag</div>"
                }
              ]
            },
            {
              "type": "formgroup",
              "label": "Ich sitze, stehe und laufe im Beruf weg lassen! steht schon da",
              "visible": "true",
              "style": {
                "className": "col-md-12 col-xs-12"
              },
              "items": [
                {
                  "type": "text",
                  "label": "Sitzen",
                  "name": "aRelevanz.derHalswirbelsaeuleNacken.haltungenUndBewegungsmuster.steheUndLaufeImBeruf.sitzen1",
                  "style": {
                    "className": "col-sm-5 col-xs-10"
                  }
                },
                {
                  "type": "text",
                  "label": "stehen/laufen",
                  "name": "aRelevanz.derHalswirbelsaeuleNacken.haltungenUndBewegungsmuster.steheUndLaufeImBeruf.stehenLaufen1",
                  "style": {
                    "className": "col-sm-5 col-xs-10"
                  }
                },
                {
                  "type": "html",
                  "html": "<div class='col-sm-2 col-xs-2'>Stunden/Tag</div>"
                },
                {
                  "type": "linebreak",
                  "style": {
                    "className": "col-sm-12 col-xs-12"
                  }
                },
                {
                  "type": "text",
                  "label": "Sitzen",
                  "name": "aRelevanz.derHalswirbelsaeuleNacken.haltungenUndBewegungsmuster.steheUndLaufeImBeruf.sitzen2",
                  "style": {
                    "className": "col-sm-5 col-xs-10"
                  }
                },
                {
                  "type": "text",
                  "label": "stehen/laufen",
                  "name": "aRelevanz.derHalswirbelsaeuleNacken.haltungenUndBewegungsmuster.steheUndLaufeImBeruf.stehenLaufen2",
                  "style": {
                    "className": "col-sm-5 col-xs-10"
                  }
                },
                {
                  "type": "html",
                  "html": "<div class='col-sm-2 col-xs-2'>Stunden/Tag</div>"
                }
              ]
            },
            {
              "type": "formgroup",
              "label": "Haushalt, weg lassen! steht schon da",
              "visible": "true",
              "style": {
                "className": "col-md-12 col-xs-12"
              },
              "items": [
                {
                  "type": "text",
                  "label": "Sitzen",
                  "name": "aRelevanz.derHalswirbelsaeuleNacken.haltungenUndBewegungsmuster.haushaltStehenLaufen.sitzen",
                  "style": {
                    "className": "col-sm-5 col-xs-10"
                  }
                },
                {
                  "type": "text",
                  "label": "stehen/laufen",
                  "name": "aRelevanz.derHalswirbelsaeuleNacken.haltungenUndBewegungsmuster.haushaltStehenLaufen.stehenLaufen",
                  "style": {
                    "className": "col-sm-5 col-xs-10"
                  }
                },
                {
                  "type": "html",
                  "html": "<div class='col-sm-2 col-xs-2'>Stunden/Tag</div>"
                }
              ]
            },
            {
              "type": "formgroup",
              "label": "Lesen / Fernsehen",
              "visible": "true",
              "style": {
                "className": "col-md-12 col-xs-12"
              },
              "items": [
                {
                  "type": "text",
                  "label": "Sitzen",
                  "name": "aRelevanz.derHalswirbelsaeuleNacken.haltungenUndBewegungsmuster.lesenFernsehen.sitzen",
                  "style": {
                    "className": "col-sm-5 col-xs-10"
                  }
                },
                {
                  "type": "text",
                  "label": "stehen/laufen",
                  "name": "aRelevanz.derHalswirbelsaeuleNacken.haltungenUndBewegungsmuster.lesenFernsehen.stehenLaufen",
                  "style": {
                    "className": "col-sm-5 col-xs-10"
                  }
                },
                {
                  "type": "html",
                  "html": "<div class='col-sm-2 col-xs-2'>Stunden/Tag</div>"
                }
              ]
            },
            {
              "type": "formgroup",
              "label": "Sitzen während des Essens",
              "visible": "true",
              "style": {
                "className": "col-md-12 col-xs-12"
              },
              "items": [
                {
                  "type": "text",
                  "label": "Sitzen",
                  "name": "aRelevanz.derHalswirbelsaeuleNacken.haltungenUndBewegungsmuster.sitzenWahrendDesEssens.sitzen",
                  "style": {
                    "className": "col-sm-5 col-xs-10"
                  }
                },
                {
                  "type": "text",
                  "label": "stehen/laufen",
                  "name": "aRelevanz.derHalswirbelsaeuleNacken.haltungenUndBewegungsmuster.sitzenWahrendDesEssens.stehenLaufen",
                  "style": {
                    "className": "col-sm-5 col-xs-10"
                  }
                },
                {
                  "type": "html",
                  "html": "<div class='col-sm-2 col-xs-2'>Stunden/Tag</div>"
                }
              ]
            },
            {
              "type": "formgroup",
              "label": "andere täglich Tätigkeiten im Sitzen",
              "visible": "true",
              "style": {
                "className": "col-md-12 col-xs-12"
              },
              "items": [
                {
                  "type": "text",
                  "label": "Sitzen",
                  "name": "aRelevanz.derHalswirbelsaeuleNacken.haltungenUndBewegungsmuster.andereTaglichTatigkeitenImSitzen.sitzen",
                  "style": {
                    "className": "col-sm-5 col-xs-10"
                  }
                },
                {
                  "type": "text",
                  "label": "stehen/laufen",
                  "name": "aRelevanz.derHalswirbelsaeuleNacken.haltungenUndBewegungsmuster.andereTaglichTatigkeitenImSitzen.stehenLaufen",
                  "style": {
                    "className": "col-sm-5 col-xs-10"
                  }
                },
                {
                  "type": "html",
                  "html": "<div class='col-sm-2 col-xs-2'>Stunden/Tag</div>"
                }
              ]
            },
            {
              "type": "formgroup",
              "label": "andere täglich Tätigkeiten im Stehen/Laufen",
              "visible": "true",
              "style": {
                "className": "col-md-12 col-xs-12"
              },
              "items": [
                {
                  "type": "text",
                  "label": "Sitzen",
                  "name": "aRelevanz.derHalswirbelsaeuleNacken.haltungenUndBewegungsmuster.andereTaglichTatigkeitenImStehenLaufen.sitzen",
                  "style": {
                    "className": "col-sm-5 col-xs-10"
                  }
                },
                {
                  "type": "text",
                  "label": "stehen/laufen",
                  "name": "aRelevanz.derHalswirbelsaeuleNacken.haltungenUndBewegungsmuster.andereTaglichTatigkeitenImStehenLaufen.stehenLaufen",
                  "style": {
                    "className": "col-sm-5 col-xs-10"
                  }
                },
                {
                  "type": "html",
                  "html": "<div class='col-sm-2 col-xs-2'>Stunden/Tag</div>"
                }
              ]
            },
            {
              "type": "formgroup",
              "label": "Summe",
              "visible": "true",
              "style": {
                "className": "col-md-12 col-xs-12"
              },
              "items": [
                {
                  "type": "text",
                  "label": "Sitzen",
                  "name": "aRelevanz.derHalswirbelsaeuleNacken.haltungenUndBewegungsmuster.summe.sitzen",
                  "style": {
                    "className": "col-sm-5 col-xs-10"
                  }
                },
                {
                  "type": "text",
                  "label": "stehen/laufen",
                  "name": "aRelevanz.derHalswirbelsaeuleNacken.haltungenUndBewegungsmuster.summe.stehenLaufen",
                  "style": {
                    "className": "col-sm-5 col-xs-10"
                  }
                },
                {
                  "type": "html",
                  "html": "<div class='col-sm-2 col-xs-2'>Stunden/Tag</div>"
                }
              ]
            },
            {
              "type": "formgroup",
              "label": "Stunden pro Tag:",
              "visible": "true",
              "style": {
                "className": "col-md-12 col-xs-12"
              },
              "items": [
                {
                  "type": "text",
                  "label": "Sitzen",
                  "name": "aRelevanz.derHalswirbelsaeuleNacken.haltungenUndBewegungsmuster.stundenProTag.sitzen",
                  "style": {
                    "className": "col-sm-10 col-xs-10"
                  }
                },
                {
                  "type": "html",
                  "html": "<div class='col-sm-2 col-xs-2'>Stunden/pro Tag</div>"
                },
                {
                  "type": "text",
                  "label": "Stehen/Laufen",
                  "name": "aRelevanz.derHalswirbelsaeuleNacken.haltungenUndBewegungsmuster.stundenProTag.stehenLaufen",
                  "style": {
                    "className": "col-sm-10 col-xs-10"
                  }
                },
                {
                  "type": "html",
                  "html": "<div class='col-sm-2 col-xs-2'>Stunden/pro Tag</div>"
                }
              ]
            },
            {
              "type": "formgroup",
              "label": "",
              "visible": "true",
              "style": {
                "className": "col-md-12 col-xs-12"
              },
              "items": [
                {
                  "type": "html",
                  "html": "<div class='col-xs-12'><p>bstimmte Berufsgruppen haben oft bestimmte Haltugs- und Bewegungsabläufe. Kreuzen sie bitte den entsprechende Berufsgruppe an, die am ihren Bewegungabläufen nahe kommt:</p></div>"
                },
                {
                  "type": "checkbox",
                  "name": "aRelevanz.derHalswirbelsaeuleNacken.berufsgruppeBewegungablaufen.ichArbeiteImBuroUndSitzeVielAmPC",
                  "value": "Ich arbeite im Büro und sitze viel am PC",
                  "label": "Ich arbeite im Büro und sitze viel am PC",
                  "style": {
                    "className": "col-xs-12"
                  }
                },
                {
                  "type": "checkbox",
                  "name": "aRelevanz.derHalswirbelsaeuleNacken.berufsgruppeBewegungablaufen.ichBinImPflegebereichTaetigKrankenschwesterAltenpflege",
                  "value": "Ich bin im Pflegebereich tätig (Krankenschwester, Altenpflege)",
                  "label": "Ich bin im Pflegebereich tätig (Krankenschwester, Altenpflege)",
                  "style": {
                    "className": "col-xs-12"
                  }
                },
                {
                  "type": "checkbox",
                  "name": "aRelevanz.derHalswirbelsaeuleNacken.berufsgruppeBewegungablaufen.ichBinVieleVorgebeutWieInBerufenGaertner",
                  "value": "Ich arbeite viel in vorgebeugter Haltung, wie in den Berufen (Gärtner, Dachdecker, Bauarbeiter, Zimmerfrau in Hotel, Fließenleger)",
                  "label": "Ich arbeite viel in vorgebeugter Haltung, wie in den Berufen (Gärtner, Dachdecker, Bauarbeiter, Zimmerfrau in Hotel, Fließenleger)",
                  "style": {
                    "className": "col-xs-12"
                  }
                },
                {
                  "type": "checkbox",
                  "name": "aRelevanz.derHalswirbelsaeuleNacken.berufsgruppeBewegungablaufen.ichBinImServiceHotelGastaetteBeschaeftigt",
                  "value": "Ich bin im Service (Hotel, Gastätte …) beschäftigt",
                  "label": "Ich bin im Service (Hotel, Gastätte …) beschäftigt",
                  "style": {
                    "className": "col-xs-12"
                  }
                },
                {
                  "type": "checkbox",
                  "name": "aRelevanz.derHalswirbelsaeuleNacken.berufsgruppeBewegungablaufen.ichBinBeruflichVielMitDemAutoUnterwegs",
                  "value": "Ich bin beruflich viel mit dem Auto unterwegs",
                  "label": "Ich bin beruflich viel mit dem Auto unterwegs",
                  "style": {
                    "className": "col-xs-12"
                  }
                },
                {
                  "type": "checkbox",
                  "name": "aRelevanz.derHalswirbelsaeuleNacken.berufsgruppeBewegungablaufen.ichSitzeVielAufDemGabelstablerBaggerEtc",
                  "value": "Ich  sitze viel auf dem Gabelstabler, Bagger etc.",
                  "label": "Ich  sitze viel auf dem Gabelstabler, Bagger etc.",
                  "style": {
                    "className": "col-xs-12"
                  }
                },
                {
                  "type": "checkbox",
                  "name": "aRelevanz.derHalswirbelsaeuleNacken.berufsgruppeBewegungablaufen.ichBinInDerFabrikTaetigUndSteheUberwiege",
                  "value": "Ich bin in der Fabrik tätig und stehe überwiegend und muss mich auch immer wieder zu einer oder beiden seiten drehen",
                  "label": "Ich bin in der Fabrik tätig und stehe überwiegend und muss mich auch immer wieder zu einer oder beiden seiten drehen",
                  "style": {
                    "className": "col-xs-12"
                  }
                },
                {
                  "type": "checkbox",
                  "name": "aRelevanz.derHalswirbelsaeuleNacken.berufsgruppeBewegungablaufen.ichBinImVerkaufTaetigUndSteheSehrVielUnd",
                  "value": "Ich bin im Verkauf tätig und stehe sehr viel und muss mich jedoch oft nach einer Seite drehen (z. B. Bäckerverkäuferin dreht sich, um Brot aus dem Regal zu holen)",
                  "label": "Ich bin im Verkauf tätig und stehe sehr viel und muss mich jedoch oft nach einer Seite drehen (z. B. Bäckerverkäuferin dreht sich, um Brot aus dem Regal zu holen)",
                  "style": {
                    "className": "col-xs-12"
                  }
                },
                {
                  "type": "checkbox",
                  "name": "aRelevanz.derHalswirbelsaeuleNacken.berufsgruppeBewegungablaufen.ichBinImVerkaufTaetigUndSteheSehrViel",
                  "value": "Ich bin im Verkauf tätig und stehe sehr viel",
                  "label": "Ich bin im Verkauf tätig und stehe sehr viel",
                  "style": {
                    "className": "col-xs-12"
                  }
                },
                {
                  "type": "checkbox",
                  "name": "aRelevanz.derHalswirbelsaeuleNacken.berufsgruppeBewegungablaufen.ichInEinemBerufTaetigInDemIchSteheUndVie",
                  "value": "Ich in einem Beruf tätig in dem ich stehe und viel über Kopf arbeite (Maler, Verputzer, KFZ-Mechaniker …)",
                  "label": "Ich in einem Beruf tätig in dem ich stehe und viel über Kopf arbeite (Maler, Verputzer, KFZ-Mechaniker …)",
                  "style": {
                    "className": "col-xs-12"
                  }
                },
                {
                  "type": "checkbox",
                  "name": "aRelevanz.derHalswirbelsaeuleNacken.berufsgruppeBewegungablaufen.ichBinFriseurUndSteheViel",
                  "value": "Ich bin Friseur und stehe viel",
                  "label": "Ich bin Friseur und stehe viel",
                  "style": {
                    "className": "col-xs-12"
                  }
                },
                {
                  "type": "checkbox",
                  "name": "aRelevanz.derHalswirbelsaeuleNacken.berufsgruppeBewegungablaufen.ichBinAnDerKasseInEinemMarktUndSitzeDabei",
                  "value": "Ich bin an der Kasse in einem Markt und sitze dabei",
                  "label": "Ich bin an der Kasse in einem Markt und sitze dabei",
                  "style": {
                    "className": "col-xs-12"
                  }
                },
                {
                  "type": "checkbox",
                  "name": "aRelevanz.derHalswirbelsaeuleNacken.berufsgruppeBewegungablaufen.ichBinZahnarztOderZahnarztgehilfin",
                  "value": "Ich bin Zahnarzt oder Zahnarztgehilfin",
                  "label": "Ich bin Zahnarzt oder Zahnarztgehilfin",
                  "style": {
                    "className": "col-xs-12"
                  }
                },
                {
                  "type": "checkbox",
                  "name": "aRelevanz.derHalswirbelsaeuleNacken.berufsgruppeBewegungablaufen.ichBinVerlegeFussbodenUndKnieDabeiSehrVi",
                  "value": "Ich bin verlege Fußböden und knie dabei sehr viel (auch andere Berufe, die kniend tätig sind)",
                  "label": "Ich bin verlege Fußböden und knie dabei sehr viel (auch andere Berufe, die kniend tätig sind)",
                  "style": {
                    "className": "col-xs-12"
                  }
                }
              ]
            },
            {
              "type": "formgroup",
              "label": "Zusätzlich beschäftige ich mich in der Freizeit mit:",
              "visible": "true",
              "style": {
                "className": "col-md-12 col-xs-12"
              },
              "items": [
                {
                  "type": "checkbox",
                  "name": "aRelevanz.derHalswirbelsaeuleNacken.zusaetzlichBeschaeftigeIchMichFreizeit.sportWieWalkingLaufenCrosstrainer",
                  "value": "Sport wie Walking, Laufen, Crosstrainer",
                  "label": "Sport wie Walking, Laufen, Crosstrainer",
                  "style": {
                    "className": "col-xs-12"
                  }
                },
                {
                  "type": "text",
                  "label": "Sport wie Walking, Laufen, Crosstrainer (Stunden/Woche)",
                  "name": "aRelevanz.derHalswirbelsaeuleNacken.zusaetzlichBeschaeftigeIchMichFreizeit.stundenWoche.sportWieWalkingLaufenCrosstrainer",
                  "visible": false,
                  "toggleif": "aRelevanz.derHalswirbelsaeuleNacken.zusaetzlichBeschaeftigeIchMichFreizeit.sportWieWalkingLaufenCrosstrainer:equals:true",
                  "style": {
                    "className": "col-xs-12"
                  }
                },
                {
                  "type": "checkbox",
                  "name": "aRelevanz.derHalswirbelsaeuleNacken.zusaetzlichBeschaeftigeIchMichFreizeit.fahrradFahrenErgometer",
                  "value": "Fahrrad fahren/Ergometer",
                  "label": "Fahrrad fahren/Ergometer",
                  "style": {
                    "className": "col-xs-12"
                  }
                },
                {
                  "type": "text",
                  "label": "Fahrrad fahren/Ergometer (Stunden/Woche)",
                  "name": "aRelevanz.derHalswirbelsaeuleNacken.zusaetzlichBeschaeftigeIchMichFreizeit.stundenWoche.fahrradFahrenErgometer",
                  "visible": false,
                  "toggleif": "aRelevanz.derHalswirbelsaeuleNacken.zusaetzlichBeschaeftigeIchMichFreizeit.fahrradFahrenErgometer:equals:true",
                  "style": {
                    "className": "col-xs-12"
                  }
                },
                {
                  "type": "checkbox",
                  "name": "aRelevanz.derHalswirbelsaeuleNacken.zusaetzlichBeschaeftigeIchMichFreizeit.ichMacheRegelmaessigGymnastikYogaEtc",
                  "value": "Ich mache regelmäßig Gymnastik/Yoga etc.",
                  "label": "Ich mache regelmäßig Gymnastik/Yoga etc.",
                  "style": {
                    "className": "col-xs-12"
                  }
                },
                {
                  "type": "text",
                  "label": "Ich mache regelmäßig Gymnastik/Yoga etc. (Stunden/Woche)",
                  "name": "aRelevanz.derHalswirbelsaeuleNacken.zusaetzlichBeschaeftigeIchMichFreizeit.stundenWoche.ichMacheRegelmaessigGymnastikYoga",
                  "visible": false,
                  "toggleif": "aRelevanz.derHalswirbelsaeuleNacken.zusaetzlichBeschaeftigeIchMichFreizeit.ichMacheRegelmaessigGymnastikYogaEtc:equals:true",
                  "style": {
                    "className": "col-xs-12"
                  }
                },
                {
                  "type": "checkbox",
                  "name": "aRelevanz.derHalswirbelsaeuleNacken.zusaetzlichBeschaeftigeIchMichFreizeit.sitzendeHobbySchachKartenSpielen",
                  "value": "Sitzende / Hobbys (Schach, Karten spielen…)",
                  "label": "Sitzende / Hobbys (Schach, Karten spielen…)",
                  "style": {
                    "className": "col-xs-12"
                  }
                },
                {
                  "type": "text",
                  "label": "Sitzende / Hobbys (Schach, Karten spielen…) (Stunden/Woche)",
                  "name": "aRelevanz.derHalswirbelsaeuleNacken.zusaetzlichBeschaeftigeIchMichFreizeit.stundenWoche.sitzendeHobbySchachKartenSpielen",
                  "visible": false,
                  "toggleif": "aRelevanz.derHalswirbelsaeuleNacken.zusaetzlichBeschaeftigeIchMichFreizeit.sitzendeHobbySchachKartenSpielen:equals:true",
                  "style": {
                    "className": "col-xs-12"
                  }
                },
                {
                  "type": "checkbox",
                  "name": "aRelevanz.derHalswirbelsaeuleNacken.zusaetzlichBeschaeftigeIchMichFreizeit.fitnesstrainingMitGeraeten",
                  "value": "Fitnesstraining mit Geräten",
                  "label": "Fitnesstraining mit Geräten",
                  "style": {
                    "className": "col-xs-12"
                  }
                },
                {
                  "type": "text",
                  "label": "Fitnesstraining mit Geräten (Stunden/Woche)",
                  "name": "aRelevanz.derHalswirbelsaeuleNacken.zusaetzlichBeschaeftigeIchMichFreizeit.stundenWoche.fitnesstrainingMitGeraeten",
                  "visible": false,
                  "toggleif": "aRelevanz.derHalswirbelsaeuleNacken.zusaetzlichBeschaeftigeIchMichFreizeit.fitnesstrainingMitGeraeten:equals:true",
                  "style": {
                    "className": "col-xs-12"
                  }
                },
                {
                  "type": "checkbox",
                  "name": "aRelevanz.derHalswirbelsaeuleNacken.zusaetzlichBeschaeftigeIchMichFreizeit.ichTrainiereRegelmaessigMeineBauchmuskulatur",
                  "value": "Ich trainiere regelmäßig meine Bauchmuskulatur",
                  "label": "Ich trainiere regelmäßig meine Bauchmuskulatur",
                  "style": {
                    "className": "col-xs-12"
                  }
                },
                {
                  "type": "text",
                  "label": "Ich trainiere regelmäßig meine Bauchmuskulatur (Stunden/Woche)",
                  "name": "aRelevanz.derHalswirbelsaeuleNacken.zusaetzlichBeschaeftigeIchMichFreizeit.stundenWoche.ichTrainiereRegelmaessigMeineBauchmuskulatur",
                  "visible": false,
                  "toggleif": "aRelevanz.derHalswirbelsaeuleNacken.zusaetzlichBeschaeftigeIchMichFreizeit.ichTrainiereRegelmaessigMeineBauchmuskulatur:equals:true",
                  "style": {
                    "className": "col-xs-12"
                  }
                },
                {
                  "type": "checkbox",
                  "name": "aRelevanz.derHalswirbelsaeuleNacken.zusaetzlichBeschaeftigeIchMichFreizeit.gartenarbeit",
                  "value": "Gartenarbeit",
                  "label": "Gartenarbeit",
                  "style": {
                    "className": "col-xs-12"
                  }
                },
                {
                  "type": "text",
                  "label": "Gartenarbeit (Stunden/Woche)",
                  "name": "aRelevanz.derHalswirbelsaeuleNacken.zusaetzlichBeschaeftigeIchMichFreizeit.stundenWoche.gartenarbeit",
                  "visible": false,
                  "toggleif": "aRelevanz.derHalswirbelsaeuleNacken.zusaetzlichBeschaeftigeIchMichFreizeit.gartenarbeit:equals:true",
                  "style": {
                    "className": "col-xs-12"
                  }
                },
                {
                  "type": "checkbox",
                  "name": "aRelevanz.derHalswirbelsaeuleNacken.zusaetzlichBeschaeftigeIchMichFreizeit.golfSpielen",
                  "value": "Golf spielen",
                  "label": "Golf spielen",
                  "style": {
                    "className": "col-xs-12"
                  }
                },
                {
                  "type": "text",
                  "label": "Golf spielen (Stunden/Woche)",
                  "name": "aRelevanz.derHalswirbelsaeuleNacken.zusaetzlichBeschaeftigeIchMichFreizeit.stundenWoche.golfSpielen",
                  "visible": false,
                  "toggleif": "aRelevanz.derHalswirbelsaeuleNacken.zusaetzlichBeschaeftigeIchMichFreizeit.golfSpielen:equals:true",
                  "style": {
                    "className": "col-xs-12"
                  }
                },
                {
                  "type": "checkbox",
                  "name": "aRelevanz.derHalswirbelsaeuleNacken.zusaetzlichBeschaeftigeIchMichFreizeit.tennisSpielen",
                  "value": "Tennis spielen",
                  "label": "Tennis spielen",
                  "style": {
                    "className": "col-xs-12"
                  }
                },
                {
                  "type": "text",
                  "label": "Tennis spielen (Stunden/Woche)",
                  "name": "aRelevanz.derHalswirbelsaeuleNacken.zusaetzlichBeschaeftigeIchMichFreizeit.stundenWoche.tennisSpielen",
                  "visible": false,
                  "toggleif": "aRelevanz.derHalswirbelsaeuleNacken.zusaetzlichBeschaeftigeIchMichFreizeit.tennisSpielen:equals:true",
                  "style": {
                    "className": "col-xs-12"
                  }
                },
                {
                  "type": "checkbox",
                  "name": "aRelevanz.derHalswirbelsaeuleNacken.zusaetzlichBeschaeftigeIchMichFreizeit.fussball",
                  "value": "Fußball",
                  "label": "Fußball",
                  "style": {
                    "className": "col-xs-12"
                  }
                },
                {
                  "type": "text",
                  "label": "Fußball (Stunden/Woche)",
                  "name": "aRelevanz.derHalswirbelsaeuleNacken.zusaetzlichBeschaeftigeIchMichFreizeit.stundenWoche.fussball",
                  "visible": false,
                  "toggleif": "aRelevanz.derHalswirbelsaeuleNacken.zusaetzlichBeschaeftigeIchMichFreizeit.fussball:equals:true",
                  "style": {
                    "className": "col-xs-12"
                  }
                },
                {
                  "type": "checkbox",
                  "name": "aRelevanz.derHalswirbelsaeuleNacken.zusaetzlichBeschaeftigeIchMichFreizeit.volleyball",
                  "value": "Volleyball",
                  "label": "Volleyball",
                  "style": {
                    "className": "col-xs-12"
                  }
                },
                {
                  "type": "text",
                  "label": "Volleyball (Stunden/Woche)",
                  "name": "aRelevanz.derHalswirbelsaeuleNacken.zusaetzlichBeschaeftigeIchMichFreizeit.stundenWoche.volleyball",
                  "visible": false,
                  "toggleif": "aRelevanz.derHalswirbelsaeuleNacken.zusaetzlichBeschaeftigeIchMichFreizeit.volleyball:equals:true",
                  "style": {
                    "className": "col-xs-12"
                  }
                },
                {
                  "type": "checkbox",
                  "name": "aRelevanz.derHalswirbelsaeuleNacken.zusaetzlichBeschaeftigeIchMichFreizeit.handball",
                  "value": "Handball",
                  "label": "Handball",
                  "style": {
                    "className": "col-xs-12"
                  }
                },
                {
                  "type": "text",
                  "label": "Handball (Stunden/Woche)",
                  "name": "aRelevanz.derHalswirbelsaeuleNacken.zusaetzlichBeschaeftigeIchMichFreizeit.stundenWoche.handball",
                  "visible": false,
                  "toggleif": "aRelevanz.derHalswirbelsaeuleNacken.zusaetzlichBeschaeftigeIchMichFreizeit.handball:equals:true",
                  "style": {
                    "className": "col-xs-12"
                  }
                },
                {
                  "type": "checkbox",
                  "name": "aRelevanz.derHalswirbelsaeuleNacken.zusaetzlichBeschaeftigeIchMichFreizeit.ballett",
                  "value": "Ballett",
                  "label": "Ballett",
                  "style": {
                    "className": "col-xs-12"
                  }
                },
                {
                  "type": "checkbox",
                  "name": "aRelevanz.derHalswirbelsaeuleNacken.zusaetzlichBeschaeftigeIchMichFreizeit.schwimmenUberwiegenKraul",
                  "value": "Schwimmen (überwiegend Kraul)",
                  "label": "Schwimmen (überwiegend Kraul)",
                  "style": {
                    "className": "col-xs-12"
                  }
                },
                {
                  "type": "checkbox",
                  "name": "aRelevanz.derHalswirbelsaeuleNacken.zusaetzlichBeschaeftigeIchMichFreizeit.schwimmen8uberwiegendBrustschwimmen",
                  "value": "Schwimmen (überwiegend Brustschwimmen)",
                  "label": "Schwimmen (überwiegend Brustschwimmen)",
                  "style": {
                    "className": "col-xs-12"
                  }
                },
                {
                  "type": "checkbox",
                  "name": "aRelevanz.derHalswirbelsaeuleNacken.zusaetzlichBeschaeftigeIchMichFreizeit.strickenHaekeln",
                  "value": "Stricken, Häkeln",
                  "label": "Stricken, Häkeln",
                  "style": {
                    "className": "col-xs-12"
                  }
                },
                {
                  "type": "checkbox",
                  "name": "aRelevanz.derHalswirbelsaeuleNacken.zusaetzlichBeschaeftigeIchMichFreizeit.naehen",
                  "value": "Nähen",
                  "label": "Nähen",
                  "style": {
                    "className": "col-xs-12"
                  }
                },
                {
                  "type": "checkbox",
                  "name": "aRelevanz.derHalswirbelsaeuleNacken.zusaetzlichBeschaeftigeIchMichFreizeit.handwerken",
                  "value": "Handwerken",
                  "label": "Handwerken",
                  "style": {
                    "className": "col-xs-12"
                  }
                },
                {
                  "type": "checkbox",
                  "name": "aRelevanz.derHalswirbelsaeuleNacken.zusaetzlichBeschaeftigeIchMichFreizeit.sonstiges",
                  "value": "sonstiges",
                  "label": "sonstiges:",
                  "style": {
                    "className": "col-xs-12"
                  }
                }
              ]
            },
            {
              "type": "formgroup",
              "label": "",
              "visible": false,
              "toggleif": "aRelevanz.derHalswirbelsaeuleNacken.zusaetzlichBeschaeftigeIchMichFreizeit.sonstiges:equals:true",
              "items": [
                {
                  "type": "text",
                  "label": "Sport wie Walking, Laufen, Crosstrainer (Stunden/Woche)",
                  "name": "aRelevanz.derHalswirbelsaeuleNacken.sonstiges.stundenWoche.sportWieWalkingLaufenCrosstrainer",
                  "style": {
                    "className": "col-xs-6"
                  }
                },
                {
                  "type": "text",
                  "label": "Fahrrad fahren/Ergometer (Stunden/Woche)",
                  "name": "aRelevanz.derHalswirbelsaeuleNacken.sonstiges.stundenWoche.fahrradFahrenErgometer",
                  "style": {
                    "className": "col-xs-6"
                  }
                },
                {
                  "type": "text",
                  "label": "Ich mache regelmäßig Gymnastik/Yoga etc. (Stunden/Woche)",
                  "name": "aRelevanz.derHalswirbelsaeuleNacken.sonstiges.stundenWoche.ichMacheRegelmaessigGymnastikYoga",
                  "style": {
                    "className": "col-xs-6"
                  }
                },
                {
                  "type": "text",
                  "label": "Sitzende / Hobbys (Schach, Karten spielen…) (Stunden/Woche)",
                  "name": "aRelevanz.derHalswirbelsaeuleNacken.sonstiges.stundenWoche.sitzendeHobbySchachKartenSpielen",
                  "style": {
                    "className": "col-xs-6"
                  }
                },
                {
                  "type": "text",
                  "label": "Fitnesstraining mit Geräten (Stunden/Woche)",
                  "name": "aRelevanz.derHalswirbelsaeuleNacken.sonstiges.stundenWoche.fitnesstrainingMitGeraeten",
                  "style": {
                    "className": "col-xs-6"
                  }
                },
                {
                  "type": "text",
                  "label": "Ich trainiere regelmäßig meine Bauchmuskulatur (Stunden/Woche)",
                  "name": "aRelevanz.derHalswirbelsaeuleNacken.sonstiges.stundenWoche.trainiereRegelmaessigMeineBauchmuskulatur",
                  "style": {
                    "className": "col-xs-6"
                  }
                },
                {
                  "type": "text",
                  "label": "Gartenarbeit (Stunden/Woche)",
                  "name": "aRelevanz.derHalswirbelsaeuleNacken.sonstiges.stundenWoche.gartenarbeit",
                  "style": {
                    "className": "col-xs-6"
                  }
                },
                {
                  "type": "text",
                  "label": "Golf spielen (Stunden/Woche)",
                  "name": "aRelevanz.derHalswirbelsaeuleNacken.sonstiges.stundenWoche.golfSpielen",
                  "style": {
                    "className": "col-xs-6"
                  }
                },
                {
                  "type": "text",
                  "label": "Tennis spielen (Stunden/Woche)",
                  "name": "aRelevanz.derHalswirbelsaeuleNacken.sonstiges.stundenWoche.tennisSpielen",
                  "style": {
                    "className": "col-xs-6"
                  }
                },
                {
                  "type": "text",
                  "label": "Fußball (Stunden/Woche)",
                  "name": "aRelevanz.derHalswirbelsaeuleNacken.sonstiges.stundenWoche.fussball",
                  "style": {
                    "className": "col-xs-6"
                  }
                },
                {
                  "type": "text",
                  "label": "Volleyball (Stunden/Woche)",
                  "name": "aRelevanz.derHalswirbelsaeuleNacken.sonstiges.stundenWoche.volleyball",
                  "style": {
                    "className": "col-xs-6"
                  }
                },
                {
                  "type": "text",
                  "label": "Handball (Stunden/Woche)",
                  "name": "aRelevanz.derHalswirbelsaeuleNacken.sonstiges.stundenWoche.handball",
                  "style": {
                    "className": "col-xs-6"
                  }
                },
                {
                  "type": "text",
                  "label": "sonstiges: ",
                  "name": "aRelevanz.derHalswirbelsaeuleNacken.sonstiges.stundenWoche.sonstiges",
                  "style": {
                    "className": "col-xs-12"
                  }
                }
              ]
            },
            {
              "type": "formgroup",
              "label": "Haltung:",
              "visible": "true",
              "style": {
                "className": "col-md-12 col-xs-12"
              },
              "items": [
                {
                  "type": "checkbox",
                  "name": "aRelevanz.derHalswirbelsaeuleNacken.haltung.ichLegeDieBeineGernHochWennIchLeseOderFe",
                  "value": "Ich lege die Beine gern hoch, wenn ich Lese oder fernsehe",
                  "label": "Ich lege die Beine gern hoch, wenn ich Lese oder fernsehe",
                  "style": {
                    "className": "col-xs-12"
                  }
                },
                {
                  "type": "checkbox",
                  "name": "aRelevanz.derHalswirbelsaeuleNacken.haltung.haltung.ichZieheDieFusseWaehrendDesSitzensGernUn",
                  "value": "Ich ziehe die Füße während des Sitzens gern unter den Stuhl",
                  "label": "Ich ziehe die Füße während des Sitzens gern unter den Stuhl",
                  "style": {
                    "className": "col-xs-12"
                  }
                },
                {
                  "type": "checkbox",
                  "name": "aRelevanz.derHalswirbelsaeuleNacken.haltung.ichSchlageDieBeineGernWaehrendDesSitzens",
                  "value": "Ich schlage die Beine gern während des Sitzens übereinander",
                  "label": "Ich schlage die Beine gern während des Sitzens übereinander",
                  "style": {
                    "className": "col-xs-12"
                  }
                },
                {
                  "type": "checkbox",
                  "name": "aRelevanz.derHalswirbelsaeuleNacken.haltung.ichStreckeDieBeineGernWaehrendDesSitzens",
                  "value": "Ich strecke die Beine gern während des Sitzens aus",
                  "label": "Ich strecke die Beine gern während des Sitzens aus",
                  "style": {
                    "className": "col-xs-12"
                  }
                },
                {
                  "type": "checkbox",
                  "name": "aRelevanz.derHalswirbelsaeuleNacken.haltung.ichMussMichWaehrendMeinerArbeitOftNachEi",
                  "value": "Ich muss mich während meiner Arbeit oft nach einer Seite drehen (Monitor steht auf einer Seite, in der Küche, beim Bügeln etc.)",
                  "label": "Ich muss mich während meiner Arbeit oft nach einer Seite drehen (Monitor steht auf einer Seite, in der Küche, beim Bügeln etc.)",
                  "style": {
                    "className": "col-xs-12"
                  }
                },
                {
                  "type": "checkbox",
                  "name": "aRelevanz.derHalswirbelsaeuleNacken.haltung.ichSteheDurchMeinenBerufOftAufDerLeiter",
                  "value": "Ich stehe durch meinen Beruf oft auf der Leiter",
                  "label": "Ich stehe durch meinen Beruf oft auf der Leiter",
                  "style": {
                    "className": "col-xs-12"
                  }
                },
                {
                  "type": "checkbox",
                  "name": "aRelevanz.derHalswirbelsaeuleNacken.haltung.ichSteheDurchMeinenBerufOftAufDerLeiterU",
                  "value": "Ich stehe durch meinen Beruf oft auf der Leiter und arbeite viel über Kopf",
                  "label": "Ich stehe durch meinen Beruf oft auf der Leiter und arbeite viel über Kopf",
                  "style": {
                    "className": "col-xs-12"
                  }
                },
                {
                  "type": "checkbox",
                  "name": "aRelevanz.derHalswirbelsaeuleNacken.haltung.ichSchlafeUberwiegendAufDerSeite",
                  "value": "Ich schlafe überwiegend auf der Seite",
                  "label": "Ich schlafe überwiegend auf der Seite",
                  "style": {
                    "className": "col-xs-12"
                  }
                },
                {
                  "type": "checkbox",
                  "name": "aRelevanz.derHalswirbelsaeuleNacken.haltung.ichSchlafeUberwiegenAufDemBauch",
                  "value": "Ich schlafe überwiegend auf dem Bauch",
                  "label": "Ich schlafe überwiegend auf dem Bauch",
                  "style": {
                    "className": "col-xs-12"
                  }
                },
                {
                  "type": "checkbox",
                  "name": "aRelevanz.derHalswirbelsaeuleNacken.haltung.ichSchlafeUberwiegenAufDemBauchUndEinBei",
                  "value": "Ich schlafe überwiegend auf dem Bauch und ein Bein ist angezogen",
                  "label": "Ich schlafe überwiegend auf dem Bauch und ein Bein ist angezogen",
                  "style": {
                    "className": "col-xs-12"
                  }
                },
                {
                  "type": "checkbox",
                  "name": "aRelevanz.derHalswirbelsaeuleNacken.haltung.ichSchlafeUberwiegenAufDemRucken",
                  "value": "Ich schlafe überwiegend auf dem Rücken",
                  "label": "Ich schlafe überwiegend auf dem Rücken",
                  "style": {
                    "className": "col-xs-12"
                  }
                },
                {
                  "type": "checkbox",
                  "name": "aRelevanz.derHalswirbelsaeuleNacken.haltung.wennIchAufDemRuckenLiegestelleIchOftEinB",
                  "value": "Wenn ich auf dem Rücken liege,stelle ich oft ein Bein an und lasse esn nach außen fallen",
                  "label": "Wenn ich auf dem Rücken liege,stelle ich oft ein Bein an und lasse esn nach außen fallen",
                  "style": {
                    "className": "col-xs-12"
                  }
                },
                {
                  "type": "checkbox",
                  "name": "aRelevanz.derHalswirbelsaeuleNacken.haltung.wennIchSitzeSitzeIchOftImSchneidersitzOd",
                  "value": "Wenn ich sitze, sitze ich oft im Schneidersitz oder auf einem Fuß",
                  "label": "Wenn ich sitze, sitze ich oft im Schneidersitz oder auf einem Fuß",
                  "style": {
                    "className": "col-xs-12"
                  }
                },
                {
                  "type": "checkbox",
                  "name": "aRelevanz.derHalswirbelsaeuleNacken.haltung.ichKlemmeBeimTelefonierenGernDenHorerEin",
                  "value": "Ich klemme beim Telefonieren gern den Hörer ein",
                  "label": "Ich klemme beim Telefonieren gern den Hörer ein",
                  "style": {
                    "className": "col-xs-12"
                  }
                },
                {
                  "type": "checkbox",
                  "name": "aRelevanz.derHalswirbelsaeuleNacken.haltung.ichTrageMeineHandtascheOftAufDerGleichen",
                  "value": "Ich trage meine Handtasche oft auf der gleichen Seite:",
                  "label": "Ich trage meine Handtasche oft auf der gleichen Seite:",
                  "style": {
                    "className": "col-xs-12"
                  }
                },
                {
                  "type": "checkbox",
                  "name": "aRelevanz.derHalswirbelsaeuleNacken.haltung.ichArbeiteVielMitDenHaenden",
                  "value": "Ich arbeite viel mit den Händen",
                  "label": "Ich arbeite viel mit den Händen",
                  "style": {
                    "className": "col-xs-12"
                  }
                },
                {
                  "type": "checkbox",
                  "name": "aRelevanz.derHalswirbelsaeuleNacken.haltung.ichSitzeVielAmPC",
                  "value": "Ich sitze viel am PC",
                  "label": "Ich sitze viel am PC",
                  "style": {
                    "className": "col-xs-12"
                  }
                },
                {
                  "type": "checkbox",
                  "name": "aRelevanz.derHalswirbelsaeuleNacken.haltung.ichKnirscheMitDenZaehnenOderPresseAufDie",
                  "value": "ich knirsche mit den Zähnen oder presse auf die Zähne",
                  "label": "ich knirsche mit den Zähnen oder presse auf die Zähne",
                  "style": {
                    "className": "col-xs-12"
                  }
                },
                {
                  "type": "checkbox",
                  "name": "aRelevanz.derHalswirbelsaeuleNacken.haltung.ichHabeVomZahnarztEineAufbissschineVeror",
                  "value": "ich habe vom Zahnarzt eine Aufbißschine verordnet bekommen und trage diese nur selten",
                  "label": "ich habe vom Zahnarzt eine Aufbißschine verordnet bekommen und trage diese nur selten",
                  "style": {
                    "className": "col-xs-12"
                  }
                },
                {
                  "type": "checkbox",
                  "name": "aRelevanz.derHalswirbelsaeuleNacken.haltung.ichHabeVomZahnarztEineAufbissschineVeror",
                  "value": "ich habe vom Zahnarzt eine Aufbißschine verordnet bekommen und trage immer nachts",
                  "label": "ich habe vom Zahnarzt eine Aufbißschine verordnet bekommen und trage immer nachts",
                  "style": {
                    "className": "col-xs-12"
                  }
                },
                {
                  "type": "checkbox",
                  "name": "aRelevanz.derHalswirbelsaeuleNacken.haltung.wennIchMichNachVornBeugeGestreckteKnieKo",
                  "value": "Wenn ich mich nach vorn beuge (gestreckte Knie) komme ich mit den Fingern nicht auf den Boden",
                  "label": "Wenn ich mich nach vorn beuge (gestreckte Knie) komme ich mit den Fingern nicht auf den Boden",
                  "style": {
                    "className": "col-xs-12"
                  }
                },
                {
                  "type": "checkbox",
                  "name": "aRelevanz.derHalswirbelsaeuleNacken.haltung.ichKannNichtImSchneidersitzSitzenDaIchNi",
                  "value": "Ich kann nicht im Schneidersitz sitzen, da ich nicht beweglich genug bin oder Schmerzen habe",
                  "label": "Ich kann nicht im Schneidersitz sitzen, da ich nicht beweglich genug bin oder Schmerzen habe",
                  "style": {
                    "className": "col-xs-12"
                  }
                },
                {
                  "type": "checkbox",
                  "name": "aRelevanz.derHalswirbelsaeuleNacken.haltung.ichMussInMeinemBerufSchwerHeben",
                  "value": "Ich muss in meinem Beruf schwer heben",
                  "label": "Ich muss in meinem Beruf schwer heben",
                  "style": {
                    "className": "col-xs-12"
                  }
                },
                {
                  "type": "checkbox",
                  "name": "aRelevanz.derHalswirbelsaeuleNacken.haltung.ichMussMichInMeinemBerufOftNachEinerSeit",
                  "value": "Ich muss mich in meinem Beruf oft nach einer Seite  drehen (Fließband Monitor steht auf einer Seite, …)",
                  "label": "Ich muss mich in meinem Beruf oft nach einer Seite  drehen (Fließband Monitor steht auf einer Seite, …)",
                  "style": {
                    "className": "col-xs-12"
                  }
                },
                {
                  "type": "checkbox",
                  "name": "aRelevanz.derHalswirbelsaeuleNacken.haltung.ichMussInMeinemBerufStehenUndBinSehrViel",
                  "value": "ich muss in meinem Beruf stehen und bin sehr viel nach vorn gebeut",
                  "label": "ich muss in meinem Beruf stehen und bin sehr viel nach vorn gebeut",
                  "style": {
                    "className": "col-xs-12"
                  }
                },
                {
                  "type": "checkbox",
                  "name": "aRelevanz.derHalswirbelsaeuleNacken.haltung.ichSteheOftMehrAufDenRechtenOderLinkenBe",
                  "value": "Ich stehe oft mehr auf den rechten oder linken Bein",
                  "label": "Ich stehe oft mehr auf den rechten oder linken Bein",
                  "style": {
                    "className": "col-xs-12"
                  }
                },
                {
                  "type": "text",
                  "name": "aRelevanz.derHalswirbelsaeuleNacken.haltungsUndBewegungsanalyse.seiteRechtsLinks",
                  "label": "Seite (rechts/links)",
                  "style": {
                    "className": "col-xs-12"
                  }
                }
              ]
            }
          ]
        },
        {
          "type": "button",
          "action": "submit",
          "name": "submitBtn",
          "onclick": "saveOrUpdate",
          "label": "{{lang-bind:save}}"
        },
        {
          "type": "button",
          "action": "dismiss",
          "name": "resetBtn",
          "onclick": "cancel()",
          "label": "{{lang-bind:dismiss}}"
        },
        {
          "type": "button",
          "action": "reset",
          "name": "resetBtn",
          "onclick": "cancel",
          "label": "{{lang-bind:clear}}"
        }
      ]
    }
  ]
}
