{
  "title": "B-Relevanz / Der Fuß- oder Zehengelenke (auch Fersensporn oder Achillessehnenprobleme…)",
  "class": "derFussOderZehengelenkeB",
  "items": [{
    "type": "form",
    "title": "B-Relevanz <i class='fa fa-arrow-right'></i> Der Fuß- oder Zehengelenke (auch Fersensporn oder Achillessehnenprobleme…)",
    "name": "derFussOderZehengelenkeBForm",
    "dbtable": "B_RELEVANZ_derFussOderZehengelenkeB",
    "collapsed": "false",
    "showid": "false",
    "class": "derFussOderZehengelenkeB",
    "style": {
      "className": "col-md-12 col-xs-12"
    },
    "items": [{
      "type": "hidden",
      "name": "id"
    },
      {
        "type": "hidden",
        "name": "patientId"
      },
      {
        "type": "html",
        "html": "<h4>Fragen zur den Schmerzen der Fuß- oder Zehengelenkschmerzen</h4>"
      },
      {
        "type": "text",
        "name": "bRelevanz.derFussOderZehengelenkeB.diangoseFestgestellt",
        "label": "Bei mir wurde folgende Diangose festgestellt",
        "style": {
          "className": "col-md-6 col-xs-12"
        }
      },
      {
        "type": "text",
        "name": "bRelevanz.derFussOderZehengelenkeB.seitWannHabenSieDieSchmerzen",
        "label": "Seit wann haben Sie die Schmerzen",
        "style": {
          "className": "col-md-6 col-xs-12"
        }
      },
      {
        "type": "text",
        "name": "bRelevanz.derFussOderZehengelenkeB.beschreibenSieBitteIhrBeschwerdebild",
        "label": "Beschreiben sie bitte Ihr Beschwerdebild",
        "style": {
          "className": "col-md-6 col-xs-12"
        }
      },
      {
        "type": "text",
        "name": "bRelevanz.derFussOderZehengelenkeB.meineFussOderZehengelenkschmerzenSindAufgrund",
        "label": "Meine Fuß- oder Zehengelenkschmerzen sind aufgrund eines Unfalls entstanden. Bitte beschreiben sie den Unfalhergang!",
        "style": {
          "className": "col-md-6 col-xs-12"
        }
      },
      {
        "type": "html",
        "html": "<div id='shmerzenFileUpload1' class='col-xs-4'></div>"
      },
      {
        "type": "formgroup",
        "label": "<h4>Spezifische Fragen zur den Schmerzen</h4>",
        "visible": "true",
        "style": {
          "className": "col-md-12 col-xs-12"
        },
        "items": [{
          "type": "html",
          "html": "bitte geben sie zu jeder zutrffenden Frage die Schmerzstärke (0-10) in das vorgesehene Feld ein (0= kein Schmerz – 10 ist Maximalschmerz) <br><br>"
        }]
      },
      {
        "type": "formgroup",
        "label": "",
        "visible": "true",
        "style": {
          "className": "col-md-6 col-xs-12"
        },
        "items": [{
          "type": "select",
          "name": "bRelevanz.derFussOderZehengelenkeB.spezifischeFragen.meineFussZehenschmerzenTetenVorallemWaehrendDesBerga",
          "label": "Meine Fuß-Zehenschmerzen teten vorallem während des Bergabgehens oder wenn ich die Treppe hinunter gehe auf",
          "dbtable": "SCHMERZ",
          "storetype": "Number",
          "style": {
            "className": "col-md-12 col-xs-12"
          },
          "datamap": {
            "id": "id",
            "text": "value"
          }
        },
          {
            "type": "select",
            "name": "bRelevanz.derFussOderZehengelenkeB.spezifischeFragen.ichHabeSchmerzenWennIchLaengereStreckenGehe",
            "label": "Ich habe Schmerzen, wenn ich längere Strecken gehe",
            "dbtable": "SCHMERZ",
            "storetype": "Number",
            "style": {
              "className": "col-md-12 col-xs-12"
            },
            "datamap": {
              "id": "id",
              "text": "value"
            }
          },
          {
            "type": "select",
            "name": "bRelevanz.derFussOderZehengelenkeB.spezifischeFragen.ichHabeSchmerzenWennIchEineTreppeHochGeheOderBergauf",
            "label": "Ich habe Schmerzen, wenn ich eine Treppe hoch gehe oder Bergauf gehe",
            "dbtable": "SCHMERZ",
            "storetype": "Number",
            "style": {
              "className": "col-md-12 col-xs-12"
            },
            "datamap": {
              "id": "id",
              "text": "value"
            }
          },
          {
            "type": "select",
            "name": "bRelevanz.derFussOderZehengelenkeB.spezifischeFragen.waehrendDsLaengerenSitzensTretenAuchImHuftbereich",
            "label": "Während ds längeren Sitzens treten auch Schmerzen im Hüftbereich auf, die sich im Fuß- oder Zehengelenke bemerkbar machen",
            "dbtable": "SCHMERZ",
            "storetype": "Number",
            "style": {
              "className": "col-md-12 col-xs-12"
            },
            "datamap": {
              "id": "id",
              "text": "value"
            }
          },
          {
            "type": "select",
            "name": "bRelevanz.derFussOderZehengelenkeB.spezifischeFragen.ichHabeFussZehenschmerzenWennIchLaengerGessesenHaben",
            "label": "Ich habe Fuß-Zehenschmerzen, wenn ich länger gessesen haben und muss dann loslaufen",
            "dbtable": "SCHMERZ",
            "storetype": "Number",
            "style": {
              "className": "col-md-12 col-xs-12"
            },
            "datamap": {
              "id": "id",
              "text": "value"
            }
          },
          {
            "type": "select",
            "name": "bRelevanz.derFussOderZehengelenkeB.spezifischeFragen.ichHabeVorAllemSchmerzenImFussOderZehenbereichWennIch",
            "label": "Ich habe vor allem Schmerzen im Fuß-oder Zehenbereich, wenn ich jogge",
            "dbtable": "SCHMERZ",
            "storetype": "Number",
            "style": {
              "className": "col-md-12 col-xs-12"
            },
            "datamap": {
              "id": "id",
              "text": "value"
            }
          },
          {
            "type": "select",
            "name": "bRelevanz.derFussOderZehengelenkeB.spezifischeFragen.ichHabeVberstaerktFussOderZehenschmerzenWennIchMitAn",
            "label": "Ich habe vberstärkt Fuß-oder Zehenschmerzen, wenn ich mit angewinkelten Beinen Sitzen muss. Strecke ich die Beine aus, so verbessern sich die Schmerzen",
            "dbtable": "SCHMERZ",
            "storetype": "Number",
            "style": {
              "className": "col-md-12 col-xs-12"
            },
            "datamap": {
              "id": "id",
              "text": "value"
            }
          },
          {
            "type": "select",
            "name": "bRelevanz.derFussOderZehengelenkeB.spezifischeFragen.ichHabeSchmerzenWennIchDieBeineUbereinanderSchlage",
            "label": "Ich habe Schmerzen, wenn ich die Beine übereinander schlage",
            "dbtable": "SCHMERZ",
            "storetype": "Number",
            "style": {
              "className": "col-md-12 col-xs-12"
            },
            "datamap": {
              "id": "id",
              "text": "value"
            }
          }]
      },
      {
        "type": "formgroup",
        "label": "",
        "visible": "true",
        "style": {
          "className": "col-md-6 col-xs-12"
        },
        "items": [{
          "type": "select",
          "name": "bRelevanz.derFussOderZehengelenkeB.spezifischeFragen.ichHabeStaerkeFussOderZehenschmerzenWennIchVielAufDer",
          "label": "Ich habe stärke Fuß- oder Zehenschmerzen, wenn ich viel auf der Leiter stehen muss",
          "dbtable": "SCHMERZ",
          "storetype": "Number",
          "style": {
            "className": "col-md-12 col-xs-12"
          },
          "datamap": {
            "id": "id",
            "text": "value"
          }
        },
          {
            "type": "select",
            "name": "bRelevanz.derFussOderZehengelenkeB.spezifischeFragen.ichHabeVorAllemFussOderZehenschmerzenWennIchIonDieHocke",
            "label": "Ich habe vor allem Fuß-oder Zehenschmerzen, wenn ich ion die Hocke gehe",
            "dbtable": "SCHMERZ",
            "storetype": "Number",
            "style": {
              "className": "col-md-12 col-xs-12"
            },
            "datamap": {
              "id": "id",
              "text": "value"
            }
          },
          {
            "type": "select",
            "name": "bRelevanz.derFussOderZehengelenkeB.spezifischeFragen.meineFussZehenscherzenVerstaerkenSichWennIchInDenSch",
            "label": "Meine Fuß-Zehenscherzen verstärken sich, wenn ich in den Schneidersitz gehe",
            "dbtable": "SCHMERZ",
            "storetype": "Number",
            "style": {
              "className": "col-md-12 col-xs-12"
            },
            "datamap": {
              "id": "id",
              "text": "value"
            }
          },
          {
            "type": "select",
            "name": "bRelevanz.derFussOderZehengelenkeB.spezifischeFragen.meineFussOderZehenschmerzenVerstaerkenSichDurchLanges",
            "label": "Meine Fuß-oder Zehenschmerzen verstärken sich durch langes Stehen",
            "dbtable": "SCHMERZ",
            "storetype": "Number",
            "style": {
              "className": "col-md-12 col-xs-12"
            },
            "datamap": {
              "id": "id",
              "text": "value"
            }
          },
          {
            "type": "select",
            "name": "bRelevanz.derFussOderZehengelenkeB.spezifischeFragen.meineFussOderZehenschmerzenVerstaerkenSichDurchRealtiv",
            "label": "Meine Fuß-oder Zehenschmerzen verstärken sich durch realtiv viel Laufen (Gehen)",
            "dbtable": "SCHMERZ",
            "storetype": "Number",
            "style": {
              "className": "col-md-12 col-xs-12"
            },
            "datamap": {
              "id": "id",
              "text": "value"
            }
          },
          {
            "type": "select",
            "name": "bRelevanz.derFussOderZehengelenkeB.spezifischeFragen.sindNachEinerVwerletzungOperationVonHufteOder",
            "label": "Meine Fuß- oder Zehenschmerzen sind nach einer Vwerletzung oder Operation von Hüfte oder Kniegelenkes",
            "dbtable": "SCHMERZ",
            "storetype": "Number",
            "style": {
              "className": "col-md-12 col-xs-12"
            },
            "datamap": {
              "id": "id",
              "text": "value"
            }
          },
          {
            "type": "select",
            "name": "bRelevanz.derFussOderZehengelenkeB.spezifischeFragen.tretenVerstaerktWaehrendDesFahrradfahrensAuf",
            "label": "Meine Fuß-oder Zehenschmerzen treten verstärkt während des Fahrradfahrens auf",
            "dbtable": "SCHMERZ",
            "storetype": "Number",
            "style": {
              "className": "col-md-12 col-xs-12"
            },
            "datamap": {
              "id": "id",
              "text": "value"
            }
          }]
      },
      {
        "type": "button",
        "action": "submit",
        "name": "submitBtn",
        "onclick": "saveOrUpdate",
        "label": "{{lang-bind:save}}"
      },
      {
        "type": "button",
        "action": "dismiss",
        "name": "resetBtn",
        "onclick": "cancel()",
        "label": "{{lang-bind:dismiss}}"
      },
      {
        "type": "button",
        "action": "reset",
        "name": "resetBtn",
        "onclick": "cancel",
        "label": "{{lang-bind:clear}}"
      }]
  }]
}
